cpu.vcd
$date
	Wed May 13 22:08:41 2015
$end
$version
	Icarus Verilog
$end
$timescale
	1ps
$end
$scope module main $end
$scope module i0 $end
$scope module pre $end
$var wire 16 ! bpAddress [15:0] $end
$var wire 16 " branchAddr [15:0] $end
$var wire 1 # clk $end
$var wire 1 $ firstHit $end
$var wire 49 % init [48:0] $end
$var wire 49 & laPCEntry [48:0] $end
$var wire 16 ' laPCEntryAddr [15:0] $end
$var wire 2 ( laPCEntryState [1:0] $end
$var wire 14 ) laPCEntryStride [13:0] $end
$var wire 5 * laPCEntryTimes [4:0] $end
$var wire 1 + laPCEntryV $end
$var wire 5 , laPCIndex [4:0] $end
$var wire 16 - laPCNextAddress [15:0] $end
$var wire 49 . laPCRPT [48:0] $end
$var wire 11 / laPCTag [10:0] $end
$var wire 1 0 memAccess $end
$var wire 16 1 memAddress [15:0] $end
$var wire 49 2 none [48:0] $end
$var wire 16 3 orlOutput [15:0] $end
$var wire 16 4 pc [15:0] $end
$var wire 49 5 pcEntry [48:0] $end
$var wire 16 6 pcEntryAddr [15:0] $end
$var wire 1 7 pcEntryHit $end
$var wire 2 8 pcEntryState [1:0] $end
$var wire 14 9 pcEntryStride [13:0] $end
$var wire 11 : pcEntryTag [10:0] $end
$var wire 5 ; pcEntryTimes [4:0] $end
$var wire 1 < pcEntryV $end
$var wire 5 = pcIndex [4:0] $end
$var wire 16 > pcNextAddress [15:0] $end
$var wire 11 ? pcTag [10:0] $end
$var wire 49 @ stable [48:0] $end
$var wire 1 A submitMemRequest $end
$var wire 49 B transient [48:0] $end
$var integer 32 C i [31:0] $end
$var reg 16 D laPC [15:0] $end
$var reg 1 E memRequest $end
$var reg 1 F orlCheck $end
$var reg 16 G requestAddress [15:0] $end
$upscope $end
$upscope $end
$upscope $end
$scope module main $end
$scope module i0 $end
$scope module i0 $end
$var wire 1 # clk $end
$var wire 16 H fetchAddr [15:0] $end
$var wire 64 I fetchData [63:0] $end
$var wire 1 J fetchEnable $end
$var wire 1 K fetchReady $end
$var wire 16 L loadAddr [15:0] $end
$var wire 64 M loadData [63:0] $end
$var wire 1 N loadEnable $end
$var wire 1 O loadReady $end
$var reg 16 P fetchCounter [15:0] $end
$var reg 16 Q fetchPtr [15:0] $end
$var integer 32 R i [31:0] $end
$upscope $end
$upscope $end
$upscope $end
$scope module main $end
$scope module i0 $end
$scope module bp $end
$var wire 16 S address [15:0] $end
$var wire 1 T brachPC $end
$var wire 1 U branch $end
$var wire 16 V branchAddr [15:0] $end
$var wire 16 W branchPC [15:0] $end
$var wire 1 # clk $end
$var wire 1 X firstHit $end
$var wire 5 Y index [4:0] $end
$var wire 16 Z laPC [15:0] $end
$var wire 16 [ ptable6 [15:0] $end
$var wire 2 \ state [1:0] $end
$var wire 11 ] tag [10:0] $end
$var wire 5 ^ wIndex [4:0] $end
$var wire 29 _ writeValue [28:0] $end
$var integer 32 ` i [31:0] $end
$upscope $end
$upscope $end
$upscope $end
$scope module main $end
$var wire 51 a addRS [50:0] $end
$var wire 16 b addRSv0 [15:0] $end
$var wire 16 c addRSv1 [15:0] $end
$var wire 1 # clk $end
$var wire 1 d cycle $end
$var wire 1 0 dData $end
$var wire 16 e dmemIn [15:0] $end
$var wire 16 f dmemOut [15:0] $end
$var wire 1 g dmemReady $end
$var wire 1 h earlyJump $end
$var wire 1 i fastFetch $end
$var wire 1 j finishedInst $end
$var wire 2 k floatFilled [1:0] $end
$var wire 16 l floatOut [15:0] $end
$var wire 1 m floatOutReady $end
$var wire 4 n floatOutReg [3:0] $end
$var wire 4 o floatOutSrc [3:0] $end
$var wire 1 p floatWE $end
$var wire 1 q iRead $end
$var wire 16 r ii [15:0] $end
$var wire 16 s imemIn [15:0] $end
$var wire 16 t imemOut [15:0] $end
$var wire 1 u imemReady $end
$var wire 1 v inEnable $end
$var wire 1 w inReady $end
$var wire 16 x inst [15:0] $end
$var wire 1 y isJeq $end
$var wire 16 z isbIn [15:0] $end
$var wire 16 { isbOut [15:0] $end
$var wire 1 | jeq $end
$var wire 1 } jeqTaken $end
$var wire 12 ~ jmpDest [11:0] $end
$var wire 2 !" loadFilled [1:0] $end
$var wire 16 "" loadOut [15:0] $end
$var wire 1 #" loadOutReady $end
$var wire 4 $" loadOutReg [3:0] $end
$var wire 4 %" loadOutSrc [3:0] $end
$var wire 51 &" loadRS [50:0] $end
$var wire 1 '" loadWE $end
$var wire 1 (" needsFloat $end
$var wire 1 )" needsLoad $end
$var wire 4 *" nextFloatRA [3:0] $end
$var wire 4 +" nextLoadRA [3:0] $end
$var wire 4 ," opcode [3:0] $end
$var wire 1 -" outEnable $end
$var wire 1 ." outReady $end
$var wire 1 /" overwriteAdd $end
$var wire 1 0" overwriteLoad $end
$var wire 1 1" pause $end
$var wire 4 2" ra [3:0] $end
$var wire 4 3" rb [3:0] $end
$var wire 16 4" reg0Src [15:0] $end
$var wire 16 5" reg0V [15:0] $end
$var wire 4 6" regsSourceAdd [3:0] $end
$var wire 1 7" regsValidAdd $end
$var wire 4 8" rt [3:0] $end
$var wire 4 9" source2 [3:0] $end
$var wire 1 :" validReg $end
$var wire 1 ;" willStall $end
$var wire 1 <" writingFloat $end
$var reg 1 =" fetching $end
$var reg 1 >" finish $end
$var integer 32 ?" i [31:0] $end
$var reg 16 @" pc [15:0] $end
$var reg 1 A" stallDispatch $end
$var reg 1 B" stallFetch $end
$upscope $end
$scope module main $end
$scope module i0 $end
$var wire 2 C" blockIndex [1:0] $end
$var wire 16 D" bpAddress [15:0] $end
$var wire 1 U branch $end
$var wire 16 E" branchAddr [15:0] $end
$var wire 16 F" branchPC [15:0] $end
$var wire 1 # clk $end
$var wire 16 G" dAddress [15:0] $end
$var wire 16 H" dAddressRead [15:0] $end
$var wire 16 I" dAddressWrite [15:0] $end
$var wire 2 J" dBlockIndex [1:0] $end
$var wire 64 K" dBlockOut [63:0] $end
$var wire 80 L" dCache0 [79:0] $end
$var wire 80 M" dCache1 [79:0] $end
$var wire 80 N" dCache2 [79:0] $end
$var wire 80 O" dCache3 [79:0] $end
$var wire 80 P" dCache4 [79:0] $end
$var wire 80 Q" dCache5 [79:0] $end
$var wire 80 R" dCacheAssign [79:0] $end
$var wire 64 S" dData [63:0] $end
$var wire 16 T" dDataOut [15:0] $end
$var wire 4 U" dIndex [3:0] $end
$var wire 4 V" dIndexW [3:0] $end
$var wire 16 W" dMemAddress [15:0] $end
$var wire 1 N dMemEnable $end
$var wire 1 g dMemReady $end
$var wire 1 0 dReadEnable $end
$var wire 1 O dReady $end
$var wire 16 X" dTag [15:0] $end
$var wire 1 Y" dataComplete $end
$var wire 1 Z" dcacheHit $end
$var wire 64 [" dcacheVal [63:0] $end
$var wire 1 \" dcachev1Hit $end
$var wire 1 ]" dcachev2Hit $end
$var wire 80 ^" dvalue1 [79:0] $end
$var wire 16 _" dvalue1Tag [15:0] $end
$var wire 1 `" dvalue1V $end
$var wire 64 a" dvalue1Val [63:0] $end
$var wire 80 b" dvalue2 [79:0] $end
$var wire 16 c" dvalue2Tag [15:0] $end
$var wire 1 d" dvalue2V $end
$var wire 64 e" dvalue2Val [63:0] $end
$var wire 1 X firstHit $end
$var wire 16 f" iAddress [15:0] $end
$var wire 16 g" iAddressReal [15:0] $end
$var wire 64 h" iBlockOut [63:0] $end
$var wire 80 i" iCacheAssign [79:0] $end
$var wire 64 j" iData [63:0] $end
$var wire 16 k" iDataOut [15:0] $end
$var wire 1 u iMemReady $end
$var wire 1 q iReadEnable $end
$var wire 1 K iReady $end
$var wire 16 l" iTag [15:0] $end
$var wire 1 m" icacheHit $end
$var wire 64 n" icacheVal [63:0] $end
$var wire 1 o" icachev1Hit $end
$var wire 1 p" icachev2Hit $end
$var wire 4 q" index [3:0] $end
$var wire 1 h jmp $end
$var wire 12 r" jmpAddr [11:0] $end
$var wire 16 s" laPC [15:0] $end
$var wire 1 A memRequest $end
$var wire 16 t" orlOutput [15:0] $end
$var wire 16 u" pc [15:0] $end
$var wire 16 v" requestAddress [15:0] $end
$var wire 1 $ resetPC $end
$var wire 80 w" value1 [79:0] $end
$var wire 16 x" value1Tag [15:0] $end
$var wire 1 y" value1V $end
$var wire 64 z" value1Val [63:0] $end
$var wire 80 {" value2 [79:0] $end
$var wire 16 |" value2Tag [15:0] $end
$var wire 1 }" value2V $end
$var wire 64 ~" value2Val [63:0] $end
$var reg 16 !# daddr [15:0] $end
$var integer 32 "# i [31:0] $end
$var reg 16 ## raddr [15:0] $end
$upscope $end
$upscope $end
$scope module main $end
$scope module ib $end
$var wire 1 # clk $end
$var wire 16 $# dataIn [15:0] $end
$var wire 16 %# dataOut [15:0] $end
$var wire 1 &# empty $end
$var wire 1 v inEnable $end
$var wire 1 w inReady $end
$var wire 1 -" outEnable $end
$var wire 1 ." outReady $end
$var wire 1 1" pause $end
$var reg 5 '# count [4:0] $end
$var reg 5 (# head [4:0] $end
$var reg 5 )# tail [4:0] $end
$upscope $end
$upscope $end
$scope module main $end
$scope module add $end
$var wire 2 *# RAFilled [1:0] $end
$var wire 1 # clk $end
$var wire 1 +# float0Ready $end
$var wire 1 ,# float1Ready $end
$var wire 16 -# floatOut [15:0] $end
$var wire 1 m floatOutReady $end
$var wire 4 .# floatOutReg [3:0] $end
$var wire 4 /# floatOutSrc [3:0] $end
$var wire 1 y isJeq $end
$var wire 1 } jeqTaken $end
$var wire 51 0# line [50:0] $end
$var wire 16 1# loadOut [15:0] $end
$var wire 1 #" loadOutReady $end
$var wire 4 2# loadOutSrc [3:0] $end
$var wire 4 3# nextRA [3:0] $end
$var wire 16 4# rs0Add [15:0] $end
$var wire 16 5# rs0Jeq [15:0] $end
$var wire 4 6# rs0Opcode [3:0] $end
$var wire 4 7# rs0Reg [3:0] $end
$var wire 4 8# rs0src0 [3:0] $end
$var wire 4 9# rs0src1 [3:0] $end
$var wire 16 :# rs0v0 [15:0] $end
$var wire 1 ;# rs0v0v $end
$var wire 16 <# rs0v1 [15:0] $end
$var wire 1 =# rs0v1v $end
$var wire 16 ># rs1Add [15:0] $end
$var wire 16 ?# rs1Jeq [15:0] $end
$var wire 4 @# rs1Opcode [3:0] $end
$var wire 4 A# rs1Reg [3:0] $end
$var wire 4 B# rs1src0 [3:0] $end
$var wire 4 C# rs1src1 [3:0] $end
$var wire 16 D# rs1v0 [15:0] $end
$var wire 16 E# rs1v1 [15:0] $end
$var wire 1 p writeEnabled $end
$var reg 51 F# rs0 [50:0] $end
$var reg 51 G# rs1 [50:0] $end
$upscope $end
$upscope $end
$scope module main $end
$scope module load $end
$var wire 2 H# RAFilled [1:0] $end
$var wire 1 # clk $end
$var wire 16 I# floatOut [15:0] $end
$var wire 1 J# floatOutReady $end
$var wire 4 K# floatOutSrc [3:0] $end
$var wire 51 L# line [50:0] $end
$var wire 1 M# load0Ready $end
$var wire 1 N# load1Ready $end
$var wire 1 0 loadMem $end
$var wire 16 O# loadOut [15:0] $end
$var wire 1 #" loadOutReady $end
$var wire 4 P# loadOutReg [3:0] $end
$var wire 4 Q# loadOutSrc [3:0] $end
$var wire 16 R# memAddr [15:0] $end
$var wire 16 S# memOut [15:0] $end
$var wire 1 g memReady $end
$var wire 4 T# nextRA [3:0] $end
$var wire 16 U# rs0Addr [15:0] $end
$var wire 4 V# rs0Opcode [3:0] $end
$var wire 4 W# rs0Reg [3:0] $end
$var wire 4 X# rs0src0 [3:0] $end
$var wire 16 Y# rs1Addr [15:0] $end
$var wire 4 Z# rs1Opcode [3:0] $end
$var wire 4 [# rs1Reg [3:0] $end
$var wire 4 \# rs1src0 [3:0] $end
$var wire 1 '" writeEnabled $end
$var reg 1 ]# fetching $end
$var reg 51 ^# rs0 [50:0] $end
$var reg 51 _# rs1 [50:0] $end
$upscope $end
$upscope $end
$enddefinitions $end
#0
$dumpvars
b0 _#
b0 ^#
0]#
b0 \#
b0 [#
b0 Z#
b0 Y#
b0 X#
b0 W#
b0 V#
b0 U#
b10 T#
bx S#
b1111 R#
b1111 Q#
b1111 P#
bx O#
0N#
0M#
bx1xxxx00000000xxxxxxxxxxxxx111111111111111111111 L#
b1111 K#
0J#
b1111 I#
b0 H#
b0 G#
b0 F#
b0 E#
b0 D#
b0 C#
b0 B#
b0 A#
b0 @#
b1 ?#
b0 >#
0=#
b0 <#
0;#
b0 :#
b0 9#
b0 8#
b0 7#
b0 6#
b1 5#
b0 4#
b0 3#
b1111 2#
bx 1#
bx1xxxxxxxxxxxxxxxxxxxxxxxxxxxxxxxxxxxxxxxxxxxxxx 0#
b1111 /#
b1111 .#
b1111 -#
0,#
0+#
b0 *#
b0 )#
b0 (#
b0 '#
1&#
bx %#
b0 $#
bx ##
b10000 "#
bx !#
bx ~"
0}"
bx |"
bx {"
bx z"
0y"
bx x"
bx w"
b0 v"
b0 u"
bz t"
b0 s"
b0 r"
b0 q"
0p"
0o"
b0xxxxxxxxxxxxxxxx n"
0m"
b0 l"
b0 k"
b0xxxxxxxxxxxxxxxx j"
b0xxxxxxxxxxxxxxxx i"
b0xxxxxxxxxxxxxxxx h"
b0 g"
b0 f"
bx e"
xd"
bx c"
bx b"
bx a"
x`"
bx _"
bx ^"
x]"
x\"
bx ["
xZ"
0Y"
b0xxxxxxxxxx X"
b0 W"
bz V"
bx U"
bx T"
b0xxxxxxxxxxxxxxxx S"
b0xxxxxxxxxx000000000000000000000000000000000000000000000000xxxxxxxxxxxxxxxx R"
bz Q"
bz P"
bz O"
bz N"
bz M"
bz L"
bx K"
bx J"
bz I"
bx H"
b1111 G"
b0 F"
b0 E"
b1111111111111111 D"
b0 C"
0B"
0A"
b0 @"
b10000 ?"
0>"
0="
0<"
0;"
x:"
bz 9"
bx 8"
17"
bx 6"
b1 5"
b0xxxx 4"
bx 3"
bx 2"
01"
00"
0/"
0."
0-"
bx ,"
b10 +"
b0 *"
x)"
x("
0'"
bx1xxxx00000000xxxxxxxxxxxxx111111111111111111111 &"
b1111 %"
b1111 $"
0#"
bx ""
b0 !"
b0 ~
0}
0|
bx {
b0 z
0y
bx x
1w
0v
0u
b0 t
b0 s
b0xxxxxxxx r
1q
0p
b1111 o
b1111 n
0m
b1111 l
b0 k
xj
0i
0h
0g
bx f
b1111 e
0d
bx c
bx b
bx1xxxxxxxxxxxxxxxxxxxxxxxxxxxxxxxxxxxxxxxxxxxxxx a
b100000 `
bx000000000000000001 _
b0 ^
b0 ]
b0 \
b0 [
b0 Z
b0 Y
0X
b0 W
b0 V
0U
zT
b1111111111111111 S
b1100100 R
bx Q
b0 P
0O
0N
b0xxxxxxxxxxxxxxxx M
b0 L
0K
1J
b0xxxxxxxxxxxxxxxx I
b0 H
b0 G
0F
0E
b0 D
b100000 C
b10000000000000000000000011110000000000111101 B
0A
b10000000000000000000000011110000000000111110 @
b0 ?
b11110 >
b0 =
0<
b0 ;
b0 :
b0 9
b0 8
07
b0 6
b0 5
b0 4
bz 3
b10000000000000000000000011110000000000111111 2
b1111 1
00
b0 /
b100000000000000000000000000000000000000000000 .
b0 -
b0 ,
0+
b0 *
b0 )
b0 (
b0 '
b0 &
b10000000000000000000000011110000000000000000 %
0$
1#
b0 "
b1111111111111111 !
$end
#500
0#
#1000
0("
0)"
1j
b0 ,"
1:"
b0 2"
b100 3"
b0 8"
b10000000000000000000001111111111111111111111111 &"
b10000000000000000000001111111111111111111111111 L#
b10000xxxxxxxxxxxxxxxx1xxxxxxxxxxxxxxxxxxxx1xxxx a
b10000xxxxxxxxxxxxxxxx1xxxxxxxxxxxxxxxxxxxx1xxxx 0#
b100 r
b1000000 {
b1000000 %#
b1000000 x
0p
0'"
bx000000000100000001 _
b1000000 "
b1000000 V
b1000000 E"
b1000000 ~
b1000000 r"
b1000000 t
b1000000 k"
b1000000 z
b1000000 $#
1."
1-"
1v
0J
b1000000000000000000000100000001000000110101000000010010 h"
0q
1d
1u
b1000000000000000000000100000001000000110101000000010010 I
b1000000000000000000000100000001000000110101000000010010 j"
b1000000000000000000000100000001000000110101000000010010 i"
b1 ,
b1 Y
bx V"
b1 P
1K
b0 Q
b1 D
b1 Z
b1 s"
bx I"
bx 3
bx t"
b0 ##
1="
b1100100 R
b1100100 C
1#
#1500
0#
#2000
b100 c
0p
0'"
0("
0)"
1j
b0 ,"
1:"
b0 2"
b0 3"
b1 8"
b110000000000000000000001111111111111111111111111 &"
b110000000000000000000001111111111111111111111111 L#
b0 r
b1 {
b1 %#
b1 x
bx000000000000000101 _
b1 "
b1 V
b1 E"
b1 ~
b1 r"
b1 t
b1 k"
b1 z
b1 $#
1."
1-"
b1 C"
1v
1i
b1 g"
b1000000000000000000000100000001000000110101000000010010 n"
b100 b
1q
1m"
b1000000000000000000000100000001000000110101000000010010 h"
b1 ^
b1 =
1o"
b0 x"
b1000000000000000000000100000001000000110101000000010010 z"
b10 ,
b10 Y
1u
b0xxxxxxxxxxxxxxxx I
b0xxxxxxxxxxxxxxxx j"
b0xxxxxxxxxxxxxxxx i"
0d
b1111 4"
b110000000000000000010011111000000000000010011111 a
b110000000000000000010011111000000000000010011111 0#
0="
b1 @"
b1 W
b1 F"
b1 4
b1 u"
b1 H
b1 s
b1 f"
1y"
b1000000000000000000000100000001000000110101000000010010 w"
b10 D
b10 Z
b10 s"
b0 P
0K
b1100100 C
b1100100 R
1#
#2500
0#
#3000
b0 b
b1 2"
b11 8"
b1110000000000000000000001111111111111111111111111 &"
b1110000000000000000000001111111111111111111111111 L#
b1110000000000000000000011111000000000000010011111 a
b1110000000000000000000011111000000000000010011111 0#
b10000 r
b100000011 {
b100000011 %#
b100000011 x
bx000000010000001101 _
b100000011 "
b100000011 V
b100000011 E"
b100000011 ~
b100000011 r"
b100000011 t
b100000011 k"
b100000011 z
b100000011 $#
b10 C"
1d
b11 ,
b11 Y
b10 ^
b10 =
b10 g"
bx Q
b11 D
b11 Z
b11 s"
b1 ##
b10 @"
b10 W
b10 F"
b10 4
b10 u"
b10 H
b10 s
b10 f"
b1100100 R
b1100100 C
1#
#3500
0#
#4000
1p
1("
1'"
b100 b
b0 c
1)"
0j
b101 ,"
b0 2"
b1 3"
b10 8"
b1010101000000000000000000000111111111111111111111 &"
b1010101000000000000000000000111111111111111111111 L#
b1010101000000000000010011111000000000000000011111 a
b1010101000000000000010011111000000000000000011111 0#
b1 r
b101000000010010 {
b101000000010010 %#
b101000000010010 x
bx000000000001001001 _
b10010 "
b10010 V
b10010 E"
b10010 ~
b10010 r"
b101000000010010 t
b101000000010010 k"
b101000000010010 z
b101000000010010 $#
b11 C"
b11 ^
b11 =
b11 g"
b100 ,
b100 Y
0d
b11 @"
b11 W
b11 F"
b11 4
b11 u"
b11 H
b11 s
b11 f"
b10 ##
b100 D
b100 Z
b100 s"
b1100100 C
b1100100 R
1#
#4500
0#
#5000
bx b
x:"
bx 2"
0."
0-"
0p
0v
x("
0'"
bx c
0/"
x)"
1j
0i
bx ,"
bx 3"
bx 8"
bx1xxxxxxxxxxxxxxxxxxxxxxxxxxxxxxxxxxxxxxxxxxxxxx a
bx1xxxxxxxxxxxxxxxxxxxxxxxxxxxxxxxxxxxxxxxxxxxxxx 0#
b0xxxxxxxx r
1J#
07"
b10 6"
b10 n
b10 .#
b100 l
b100 -#
b100 I#
1J
0u
b0xxxxxxxxxxxxxxxx h"
bx {
bx %#
bx x
b0 o
b0 /#
b0 K#
1m
b0xxxxxxxxxxxxxxxx n"
0m"
bx000000000000000001 _
b0 "
b0 V
b0 E"
b0 ~
b0 r"
1+#
bx x"
bx z"
0o"
b0 t
b0 k"
b0 z
b0 $#
bx1xxxx00000000xxxxxxxxxxxx1111111111111111111111 &"
bx1xxxx00000000xxxxxxxxxxxx1111111111111111111111 L#
bx w"
0y"
b1 q"
b0 C"
1d
b101 ,
b101 Y
b1 *"
b1 3#
b1 k
b1 *#
b101 6#
b1111 8#
b1111 9#
b10 7#
b100 4#
b0 5#
b100 :#
1;#
1=#
b11 +"
b11 T#
b1 !"
b1 H#
b101 V#
b10 W#
b100 ^
b100 =
b100 g"
b101 D
b101 Z
b101 s"
b11 ##
b1010101000000000000010011111000000000000000011111 F#
b1010101000000000000000000000111111111111111111111 ^#
b100 @"
b100 W
b100 F"
b100 4
b100 u"
b100 H
b100 s
b100 f"
b10 9"
b1100100 R
b1100100 C
1#
#5500
0#
#6000
b0 ""
b0 1#
b0 O#
b0 f
b0 T"
b0 S#
b10 b
b10000 c
b0xxxxxxxxxxxxxxxx ["
b0xxxxxxxxxxxxxxxx K"
00"
1("
0)"
0Z"
b110 ,"
0:"
b10 2"
b11 3"
b11 8"
b1110110000000000000001000010000000000001000011111 a
b1110110000000000000001000010000000000001000011111 0#
b100011 r
1|
0\"
0]"
b110001000110011 {
b110001000110011 %#
b110001000110011 x
0`"
0d"
b1 U"
b0 X"
b0xxxxxxxxxxxxxxxx R"
b0 J"
1N
0#"
0g
01"
1p
0'"
bx000000100011001101 _
b1000110011 "
b1000110011 V
b1000110011 E"
b1000110011 ~
b1000110011 r"
b100 H"
b100 L
b100 W"
0j
0;"
b110001000110011 t
b110001000110011 k"
b110001000110011 z
b110001000110011 $#
10
1."
1-"
b1000 >
b10000000000000000000000001000000000000010011 2
b10000000000000000000000001000000000000010010 @
b10000000000000000000000001000000000000010001 B
b10000000000000000000000001000000000000000000 %
b100 1
b100 e
b100 G"
b100 R#
b10 %"
b10 2#
b10 Q#
b10 $"
b10 P#
0J#
1v
0J
1M#
b1111 o
b1111 /#
b1111 K#
0m
0q
b1110110000000000000000001111111111111111111111111 &"
b1110110000000000000000001111111111111111111111111 L#
0+#
17"
bx 6"
b1111 n
b1111 .#
b1111 l
b1111 -#
b1111 I#
0i
b110001000110011000100010000000100100000000000110011000000000000 h"
b100 U#
b0 *"
b0 3#
b0 k
b0 *#
b0 6#
b0 8#
b0 9#
b0 7#
b0 4#
b1 5#
b0 :#
0;#
0=#
b110 ,
b110 Y
1u
b110001000110011000100010000000100100000000000110011000000000000 I
b110001000110011000100010000000100100000000000110011000000000000 j"
b110001000110011000100010000000100100000000000110011000000000000 i"
0d
1="
b1010101000000000000010010000111111111111111111111 ^#
b0 F#
b100 ##
b110 D
b110 Z
b110 s"
b1 P
1K
b100 Q
b1100100 C
b1100100 R
1#
#6500
0#
#7000
bx b
bx c
bx000000100011001101 _
b1000110011 "
b1000110011 V
b1000110011 E"
b1000110011 ~
b1000110011 r"
bx K"
x("
x)"
xj
b110001000110011 t
b110001000110011 k"
b110001000110011 z
b110001000110011 $#
bx ["
bx ,"
x:"
bx 2"
bx 3"
bx 8"
bx1xxxx00000000xxxxxxxxxxxx1111111111111111111111 &"
bx1xxxx00000000xxxxxxxxxxxx1111111111111111111111 L#
bx1xxxxxxxxxxxxxxxxxxxxxxxxxxxxxxxxxxxxxxxxxxxxxx a
bx1xxxxxxxxxxxxxxxxxxxxxxxxxxxxxxxxxxxxxxxxxxxxxx 0#
b0xxxxxxxx r
xZ"
bx {
bx %#
bx x
x\"
x]"
bx ""
bx 1#
bx O#
bx f
bx T"
bx S#
0p
b110001000110011000100010000000100100000000000110011000000000000 n"
x`"
xd"
bx U"
b0xxxxxxxxxx X"
b0xxxxxxxxxx000000000000000000000000000000000000000000000000xxxxxxxxxxxxxxxx R"
bx J"
0N
b110001000110011000100010000000100100000000000110011000000000000 h"
b10000000000000000000000001000000000000000001 B
b10000000000000000000000001000000000000000010 @
b10000000000000000000000001000000000000000011 2
1m"
bx H"
b0 L
b0 W"
0."
0-"
0|
1d
1u
b0xxxxxxxxxxxxxxxx I
b0xxxxxxxxxxxxxxxx j"
b0xxxxxxxxxxxxxxxx i"
b111 ,
b111 Y
1<
b100 >
b100 6
1o"
b0 x"
b110001000110011000100010000000100100000000000110011000000000000 z"
b1 *"
b1 3#
b1 k
b1 *#
b110 6#
b10 8#
b1111 9#
b11 7#
b10 :#
b10010 4#
b0 5#
b10000 <#
1=#
00
0v
b0 P
0K
b111 D
b111 Z
b111 s"
b10000000000000000000000001000000000000000000 5
1y"
b110001000110011000100010000000100100000000000110011000000000000 w"
b100 !#
b1110110000000000000001000010000000000001000011111 F#
1]#
1B"
0="
b1100100 R
b1100100 C
1#
#7500
0#
#8000
b1000 ,
b1000 Y
0d
b1000 D
b1000 Z
b1000 s"
bx Q
b1100100 C
b1100100 R
1#
#8500
0#
#9000
1d
b1001 ,
b1001 Y
b1001 D
b1001 Z
b1001 s"
b1100100 R
b1100100 C
1#
#9500
0#
#10000
b1010 ,
b1010 Y
0d
b1010 D
b1010 Z
b1010 s"
b1100100 C
b1100100 R
1#
#10500
0#
#11000
1d
b1011 ,
b1011 Y
b1011 D
b1011 Z
b1011 s"
b1100100 R
b1100100 C
1#
#11500
0#
#12000
b1100 ,
b1100 Y
0d
b1100 D
b1100 Z
b1100 s"
b1100100 C
b1100100 R
1#
#12500
0#
#13000
1d
b1101 ,
b1101 Y
b1101 D
b1101 Z
b1101 s"
b1100100 R
b1100100 C
1#
#13500
0#
#14000
b1110 ,
b1110 Y
0d
b1110 D
b1110 Z
b1110 s"
b1100100 C
b1100100 R
1#
#14500
0#
#15000
1d
b1111 ,
b1111 Y
b1111 D
b1111 Z
b1111 s"
b1100100 R
b1100100 C
1#
#15500
0#
#16000
b10000 ,
b10000 Y
0d
b10000 D
b10000 Z
b10000 s"
b1100100 C
b1100100 R
1#
#16500
0#
#17000
1d
b10001 ,
b10001 Y
b10001 D
b10001 Z
b10001 s"
b1100100 R
b1100100 C
1#
#17500
0#
#18000
b10010 ,
b10010 Y
0d
b10010 D
b10010 Z
b10010 s"
b1100100 C
b1100100 R
1#
#18500
0#
#19000
1d
b10011 ,
b10011 Y
b10011 D
b10011 Z
b10011 s"
b1100100 R
b1100100 C
1#
#19500
0#
#20000
b10100 ,
b10100 Y
0d
b10100 D
b10100 Z
b10100 s"
b1100100 C
b1100100 R
1#
#20500
0#
#21000
1d
b10101 ,
b10101 Y
b10101 D
b10101 Z
b10101 s"
b1100100 R
b1100100 C
1#
#21500
0#
#22000
b10110 ,
b10110 Y
0d
b10110 D
b10110 Z
b10110 s"
b1100100 C
b1100100 R
1#
#22500
0#
#23000
1d
b10111 ,
b10111 Y
b10111 D
b10111 Z
b10111 s"
b1100100 R
b1100100 C
1#
#23500
0#
#24000
b11000 ,
b11000 Y
0d
b11000 D
b11000 Z
b11000 s"
b1100100 C
b1100100 R
1#
#24500
0#
#25000
1d
b11001 ,
b11001 Y
b11001 D
b11001 Z
b11001 s"
b1100100 R
b1100100 C
1#
#25500
0#
#26000
b11010 ,
b11010 Y
0d
b11010 D
b11010 Z
b11010 s"
b1100100 C
b1100100 R
1#
#26500
0#
#27000
1d
b11011 ,
b11011 Y
b11011 D
b11011 Z
b11011 s"
b1100100 R
b1100100 C
1#
#27500
0#
#28000
b11100 ,
b11100 Y
0d
b11100 D
b11100 Z
b11100 s"
b1100100 C
b1100100 R
1#
#28500
0#
#29000
1d
b11101 ,
b11101 Y
b11101 D
b11101 Z
b11101 s"
b1100100 R
b1100100 C
1#
#29500
0#
#30000
b11110 ,
b11110 Y
0d
b11110 D
b11110 Z
b11110 s"
b1100100 C
b1100100 R
1#
#30500
0#
#31000
1d
b11111 ,
b11111 Y
b11111 D
b11111 Z
b11111 s"
b1100100 R
b1100100 C
1#
#31500
0#
#32000
bx -
b1 /
b0 ,
x+
bx '
bx )
bx (
bx *
bx .
b1 ]
b0 Y
0d
b100000 D
bx &
b100000 Z
b100000 s"
b1100100 C
b1100100 R
1#
#32500
0#
#33000
1d
b1 ,
b1 Y
b100001 D
b100001 Z
b100001 s"
b1100100 R
b1100100 C
1#
#33500
0#
#34000
b10 ,
b10 Y
0d
b100010 D
b100010 Z
b100010 s"
b1100100 C
b1100100 R
1#
#34500
0#
#35000
1d
b11 ,
b11 Y
b100011 D
b100011 Z
b100011 s"
b1100100 R
b1100100 C
1#
#35500
0#
#36000
b100 ,
b100 Y
0d
b100100 D
b100100 Z
b100100 s"
b1100100 C
b1100100 R
1#
#36500
0#
#37000
1d
b101 ,
b101 Y
b100101 D
b100101 Z
b100101 s"
b1100100 R
b1100100 C
1#
#37500
0#
#38000
b110 ,
b110 Y
0d
b100110 D
b100110 Z
b100110 s"
b1100100 C
b1100100 R
1#
#38500
0#
#39000
1d
b111 ,
b111 Y
b100111 D
b100111 Z
b100111 s"
b1100100 R
b1100100 C
1#
#39500
0#
#40000
b1000 ,
b1000 Y
0d
b101000 D
b101000 Z
b101000 s"
b1100100 C
b1100100 R
1#
#40500
0#
#41000
1d
b1001 ,
b1001 Y
b101001 D
b101001 Z
b101001 s"
b1100100 R
b1100100 C
1#
#41500
0#
#42000
b1010 ,
b1010 Y
0d
b101010 D
b101010 Z
b101010 s"
b1100100 C
b1100100 R
1#
#42500
0#
#43000
1d
b1011 ,
b1011 Y
b101011 D
b101011 Z
b101011 s"
b1100100 R
b1100100 C
1#
#43500
0#
#44000
b1100 ,
b1100 Y
0d
b101100 D
b101100 Z
b101100 s"
b1100100 C
b1100100 R
1#
#44500
0#
#45000
1d
b1101 ,
b1101 Y
b101101 D
b101101 Z
b101101 s"
b1100100 R
b1100100 C
1#
#45500
0#
#46000
b1110 ,
b1110 Y
0d
b101110 D
b101110 Z
b101110 s"
b1100100 C
b1100100 R
1#
#46500
0#
#47000
1d
b1111 ,
b1111 Y
b101111 D
b101111 Z
b101111 s"
b1100100 R
b1100100 C
1#
#47500
0#
#48000
b10000 ,
b10000 Y
0d
b110000 D
b110000 Z
b110000 s"
b1100100 C
b1100100 R
1#
#48500
0#
#49000
1d
b10001 ,
b10001 Y
b110001 D
b110001 Z
b110001 s"
b1100100 R
b1100100 C
1#
#49500
0#
#50000
b10010 ,
b10010 Y
0d
b110010 D
b110010 Z
b110010 s"
b1100100 C
b1100100 R
1#
#50500
0#
