cpu.vcd
$date
	Fri May  8 13:30:35 2015
$end
$version
	Icarus Verilog
$end
$timescale
	1ps
$end
$scope module main $end
$scope module i0 $end
$scope module i0 $end
$var wire 1 ! clk $end
$var wire 16 " fetchAddr [15:0] $end
$var wire 64 # fetchData [63:0] $end
$var wire 1 $ fetchEnable $end
$var wire 1 % fetchReady $end
$var wire 16 & loadAddr [15:0] $end
$var wire 64 ' loadData [63:0] $end
$var wire 1 ( loadEnable $end
$var wire 1 ) loadReady $end
$var reg 16 * fetchCounter [15:0] $end
$var reg 16 + fetchPtr [15:0] $end
$var reg 16 , loadCounter [15:0] $end
$var reg 16 - loadPtr [15:0] $end
$upscope $end
$upscope $end
$upscope $end
$scope module main $end
$var wire 51 . addRS [50:0] $end
$var wire 16 / addRSv0 [15:0] $end
$var wire 16 0 addRSv1 [15:0] $end
$var wire 1 ! clk $end
$var wire 1 1 cycle $end
$var wire 1 2 dData $end
$var wire 16 3 dmemIn [15:0] $end
$var wire 16 4 dmemOut [15:0] $end
$var wire 1 5 dmemReady $end
$var wire 1 6 earlyJump $end
$var wire 1 7 fastFetch $end
$var wire 1 8 finishedInst $end
$var wire 2 9 floatFilled [1:0] $end
$var wire 16 : floatOut [15:0] $end
$var wire 1 ; floatOutReady $end
$var wire 4 < floatOutReg [3:0] $end
$var wire 4 = floatOutSrc [3:0] $end
$var wire 1 > floatWE $end
$var wire 1 ? iRead $end
$var wire 16 @ ii [15:0] $end
$var wire 16 A imemIn [15:0] $end
$var wire 16 B imemOut [15:0] $end
$var wire 1 C imemReady $end
$var wire 1 D inEnable $end
$var wire 1 E inReady $end
$var wire 16 F inst [15:0] $end
$var wire 1 G isJeq $end
$var wire 16 H isbIn [15:0] $end
$var wire 16 I isbOut [15:0] $end
$var wire 1 J jeq $end
$var wire 1 K jeqTaken $end
$var wire 12 L jmpDest [11:0] $end
$var wire 2 M loadFilled [1:0] $end
$var wire 16 N loadOut [15:0] $end
$var wire 16 O loadOutAddr [15:0] $end
$var wire 1 P loadOutReady $end
$var wire 4 Q loadOutReg [3:0] $end
$var wire 4 R loadOutSrc [3:0] $end
$var wire 51 S loadRS [50:0] $end
$var wire 1 T loadWE $end
$var wire 1 U needsFloat $end
$var wire 1 V needsLoad $end
$var wire 4 W nextFloatRA [3:0] $end
$var wire 4 X nextLoadRA [3:0] $end
$var wire 4 Y opcode [3:0] $end
$var wire 1 Z outEnable $end
$var wire 1 [ outReady $end
$var wire 1 \ overwrite $end
$var wire 1 ] pause $end
$var wire 4 ^ ra [3:0] $end
$var wire 4 _ rb [3:0] $end
$var wire 16 ` reg0Src [15:0] $end
$var wire 16 a reg0V [15:0] $end
$var wire 4 b regsSourceAdd [3:0] $end
$var wire 1 c regsValidAdd $end
$var wire 4 d rt [3:0] $end
$var wire 1 e willStall $end
$var wire 1 f writingFloat $end
$var reg 1 g fetching $end
$var reg 1 h finish $end
$var integer 32 i i [31:0] $end
$var reg 16 j pc [15:0] $end
$var reg 1 k stallDispatch $end
$var reg 1 l stallFetch $end
$upscope $end
$scope module main $end
$scope module i0 $end
$var wire 3 m blockIndex [2:0] $end
$var wire 1 ! clk $end
$var wire 16 n dAddress [15:0] $end
$var wire 16 o dAddressReal [15:0] $end
$var wire 3 p dBlockIndex [2:0] $end
$var wire 64 q dBlockOut [63:0] $end
$var wire 80 r dCacheAssign [79:0] $end
$var wire 64 s dData [63:0] $end
$var wire 16 t dDataOut [15:0] $end
$var wire 4 u dIndex [3:0] $end
$var wire 1 5 dMemReady $end
$var wire 1 2 dReadEnable $end
$var wire 1 ) dReady $end
$var wire 16 v dTag [15:0] $end
$var wire 1 w dcacheHit $end
$var wire 64 x dcacheVal [63:0] $end
$var wire 1 y dcachev1Hit $end
$var wire 1 z dcachev2Hit $end
$var wire 80 { dvalue1 [79:0] $end
$var wire 16 | dvalue1Tag [15:0] $end
$var wire 1 } dvalue1V $end
$var wire 64 ~ dvalue1Val [63:0] $end
$var wire 80 !" dvalue2 [79:0] $end
$var wire 16 "" dvalue2Tag [15:0] $end
$var wire 1 #" dvalue2V $end
$var wire 64 $" dvalue2Val [63:0] $end
$var wire 16 %" iAddress [15:0] $end
$var wire 16 &" iAddressReal [15:0] $end
$var wire 64 '" iBlockOut [63:0] $end
$var wire 80 (" iCacheAssign [79:0] $end
$var wire 64 )" iData [63:0] $end
$var wire 16 *" iDataOut [15:0] $end
$var wire 1 C iMemReady $end
$var wire 1 ? iReadEnable $end
$var wire 1 % iReady $end
$var wire 16 +" iTag [15:0] $end
$var wire 1 ," icacheHit $end
$var wire 64 -" icacheVal [63:0] $end
$var wire 1 ." icachev1Hit $end
$var wire 1 /" icachev2Hit $end
$var wire 4 0" index [3:0] $end
$var wire 16 1" loadOutAddr [15:0] $end
$var wire 1 P loadOutReady $end
$var wire 16 2" pc [15:0] $end
$var wire 80 3" value1 [79:0] $end
$var wire 16 4" value1Tag [15:0] $end
$var wire 1 5" value1V $end
$var wire 64 6" value1Val [63:0] $end
$var wire 80 7" value2 [79:0] $end
$var wire 16 8" value2Tag [15:0] $end
$var wire 1 9" value2V $end
$var wire 64 :" value2Val [63:0] $end
$var reg 16 ;" daddr [15:0] $end
$var integer 32 <" i [31:0] $end
$var reg 16 =" raddr [15:0] $end
$upscope $end
$upscope $end
$scope module main $end
$scope module ib $end
$var wire 1 ! clk $end
$var wire 16 >" dataIn [15:0] $end
$var wire 16 ?" dataOut [15:0] $end
$var wire 1 @" empty $end
$var wire 1 D inEnable $end
$var wire 1 E inReady $end
$var wire 1 Z outEnable $end
$var wire 1 [ outReady $end
$var wire 1 ] pause $end
$var reg 5 A" count [4:0] $end
$var reg 5 B" head [4:0] $end
$var reg 5 C" tail [4:0] $end
$upscope $end
$upscope $end
$scope module main $end
$scope module add $end
$var wire 2 D" RAFilled [1:0] $end
$var wire 1 ! clk $end
$var wire 1 E" float0Ready $end
$var wire 1 F" float1Ready $end
$var wire 16 G" floatOut [15:0] $end
$var wire 1 ; floatOutReady $end
$var wire 4 H" floatOutReg [3:0] $end
$var wire 4 I" floatOutSrc [3:0] $end
$var wire 1 G isJeq $end
$var wire 1 K jeqTaken $end
$var wire 51 J" line [50:0] $end
$var wire 16 K" loadOut [15:0] $end
$var wire 1 P loadOutReady $end
$var wire 4 L" loadOutSrc [3:0] $end
$var wire 4 M" nextRA [3:0] $end
$var wire 16 N" rs0Add [15:0] $end
$var wire 16 O" rs0Jeq [15:0] $end
$var wire 4 P" rs0Opcode [3:0] $end
$var wire 4 Q" rs0Reg [3:0] $end
$var wire 1 R" rs0r0 $end
$var wire 1 S" rs0r1 $end
$var wire 4 T" rs0src0 [3:0] $end
$var wire 4 U" rs0src1 [3:0] $end
$var wire 16 V" rs0v0 [15:0] $end
$var wire 16 W" rs0v1 [15:0] $end
$var wire 16 X" rs1Add [15:0] $end
$var wire 16 Y" rs1Jeq [15:0] $end
$var wire 4 Z" rs1Opcode [3:0] $end
$var wire 4 [" rs1Reg [3:0] $end
$var wire 4 \" rs1src0 [3:0] $end
$var wire 4 ]" rs1src1 [3:0] $end
$var wire 1 ^" rs1src1change $end
$var wire 1 > writeEnabled $end
$var reg 51 _" rs0 [50:0] $end
$var reg 51 `" rs1 [50:0] $end
$upscope $end
$upscope $end
$scope module main $end
$scope module load $end
$var wire 2 a" RAFilled [1:0] $end
$var wire 1 ! clk $end
$var wire 16 b" floatOut [15:0] $end
$var wire 1 c" floatOutReady $end
$var wire 4 d" floatOutSrc [3:0] $end
$var wire 51 e" line [50:0] $end
$var wire 1 f" load0Ready $end
$var wire 1 g" load1Ready $end
$var wire 1 2 loadMem $end
$var wire 16 h" loadOut [15:0] $end
$var wire 16 i" loadOutAddr [15:0] $end
$var wire 1 P loadOutReady $end
$var wire 4 j" loadOutReg [3:0] $end
$var wire 4 k" loadOutSrc [3:0] $end
$var wire 16 l" memAddr [15:0] $end
$var wire 16 m" memOut [15:0] $end
$var wire 1 5 memReady $end
$var wire 4 n" nextRA [3:0] $end
$var wire 16 o" rs0Addr [15:0] $end
$var wire 4 p" rs0Opcode [3:0] $end
$var wire 4 q" rs0Reg [3:0] $end
$var wire 4 r" rs0src0 [3:0] $end
$var wire 16 s" rs1Addr [15:0] $end
$var wire 4 t" rs1Opcode [3:0] $end
$var wire 4 u" rs1Reg [3:0] $end
$var wire 4 v" rs1src0 [3:0] $end
$var wire 1 T writeEnabled $end
$var reg 1 w" active $end
$var reg 1 x" fetching $end
$var reg 51 y" rs0 [50:0] $end
$var reg 51 z" rs1 [50:0] $end
$upscope $end
$upscope $end
$enddefinitions $end
#0
$dumpvars
b0 z"
b0 y"
0x"
0w"
b0 v"
b0 u"
b0 t"
b0 s"
b0 r"
b0 q"
b0 p"
b0 o"
b10 n"
bx m"
b1111 l"
b1111 k"
b1111 j"
b1111111111111111 i"
bx h"
0g"
0f"
bx1xxxx00000000xxxxxxxxxxxxx111111111111111111111 e"
b1111 d"
0c"
b1111 b"
b0 a"
b0 `"
b0 _"
0^"
b0 ]"
b0 \"
b0 ["
b0 Z"
b1 Y"
b0 X"
b0 W"
b0 V"
b0 U"
b0 T"
0S"
0R"
b0 Q"
b0 P"
b1 O"
b0 N"
b0 M"
b1111 L"
bx K"
bx1xxxxxxxxxxxxxxxxxxxxxxxxxxxxxxxxxxxxxxxxxxxxxx J"
b1111 I"
b1111 H"
b1111 G"
0F"
0E"
b0 D"
b0 C"
b0 B"
b0 A"
1@"
bx ?"
b0 >"
bx ="
b10000 <"
bx ;"
bx :"
09"
bx 8"
bx 7"
bx 6"
05"
bx 4"
bx 3"
b0 2"
b1111111111111111 1"
b0 0"
0/"
0."
b0xxxxxxxxxxxxxxxx -"
0,"
b0 +"
b0 *"
b0xxxxxxxxxxxxxxxx )"
b0xxxxxxxxxxxxxxxx ("
b0xxxxxxxxxxxxxxxx '"
b0 &"
b0 %"
bx $"
x#"
bx ""
bx !"
bx ~
x}
bx |
bx {
xz
xy
bx x
xw
b0xxxxxxxxxx v
bx u
bx t
b0xxxxxxxxxxxxxxxx s
b0xxxxxxxxxx000000000000000000000000000000000000000000000000xxxxxxxxxxxxxxxx r
bx q
b0xx p
bx o
b1111 n
b0 m
0l
0k
b0 j
b10000 i
0h
0g
0f
0e
bx d
1c
bx b
b1 a
b0xxxx `
bx _
bx ^
0]
0\
0[
0Z
bx Y
b10 X
b0 W
xV
xU
0T
bx1xxxx00000000xxxxxxxxxxxxx111111111111111111111 S
b1111 R
b1111 Q
0P
b1111111111111111 O
bx N
b0 M
b0 L
0K
0J
bx I
b0 H
0G
bx F
1E
0D
0C
b0 B
b0 A
b0xxxxxxxx @
1?
0>
b1111 =
b1111 <
0;
b1111 :
b0 9
x8
07
06
x5
bx 4
b1111 3
02
01
bx 0
bx /
bx1xxxxxxxxxxxxxxxxxxxxxxxxxxxxxxxxxxxxxxxxxxxxxx .
bx -
b0 ,
bx +
b0 *
0)
0(
b0xxxxxxxxxxxxxxxx '
b1111 &
0%
1$
b0xxxxxxxxxxxxxxxx #
b0 "
1!
$end
#500
0!
#1000
b100000000000010000000000000000000000000000100010001000100000000 -"
1,"
1."
b0 4"
b100000000000010000000000000000000000000000100010001000100000000 6"
15"
b100000000000010000000000000000000000000000100010001000100000000 3"
0U
1V
08
b100 Y
b0 ^
b0 _
b10 d
b1010100000000000000000011111111111111111111111111 S
b1010100000000000000000011111111111111111111111111 e"
b1010100xxxxxxxxxxxxxxxx1xxxxxxxxxxxxxxxxxxxx1xxxx .
b1010100xxxxxxxxxxxxxxxx1xxxxxxxxxxxxxxxxxxxx1xxxx J"
b0 @
b100000000000010 I
b100000000000010 ?"
b100000000000010 F
0>
1T
b10 L
b100000000000010 B
b100000000000010 *"
b100000000000010 H
b100000000000010 >"
1[
1Z
1D
0$
b100000000000010000000000000000000000000000100010001000100000000 '"
0?
11
1C
b100000000000010000000000000000000000000000100010001000100000000 #
b100000000000010000000000000000000000000000100010001000100000000 )"
b100000000000010000000000000000000000000000100010001000100000000 ("
b1 *
1%
b0 +
b0 ="
1g
1!
#1500
0!
#2000
b0 N
b0 K"
b0 h"
b0 4
b0 t
b0 m"
0T
0V
18
b0 Y
b0 d
b10000000000000000000001111111111111111111111111 S
b10000000000000000000001111111111111111111111111 e"
b10000xxxxxxxxxxxxxxxx1xxxxxxxxxxxxxxxxxxxx1xxxx .
b10000xxxxxxxxxxxxxxxx1xxxxxxxxxxxxxxxxxxxx1xxxx J"
b0xxxxxxxxxxxxxxxx x
05
b0xxxxxxxxxxxxxxxx q
b0 I
b0 ?"
b0 F
0w
b0 L
0y
0z
b0 B
b0 *"
b0 H
b0 >"
0}
0#"
b0 u
b0 v
b0xxxxxxxxxxxxxxxx r
b0 p
b0 o
1(
12
b1 m
b0 &
b0 3
b0 n
b0 l"
b10 R
b10 L"
b10 k"
b10 Q
b10 j"
b0 O
b0 1"
b0 i"
17
b1 &"
1f"
1?
b11 X
b11 n"
b1 M
b1 a"
b100 p"
b1111 r"
b10 q"
b0xxxxxxxxxxxxxxxx #
b0xxxxxxxxxxxxxxxx )"
b0xxxxxxxxxxxxxxxx ("
01
0g
b1 j
b1 2"
b1 "
b1 A
b1 %"
b1010100000000000000000011111111111111111111111111 y"
b0 *
0%
1!
#2500
0!
#3000
b1 _
b1 d
b110000000000000000000001111111111111111111111111 S
b110000000000000000000001111111111111111111111111 e"
b1 @
b10001 I
b10001 ?"
b10001 F
b10001 L
b10001 B
b10001 *"
b10001 H
b10001 >"
0(
b10 m
b0 /
bx 0
11
02
b10 &"
bx +
b1100100 ,
b0 -
b1 ="
b0 ;"
1x"
b10 j
b10 2"
b10 "
b10 A
b10 %"
b1111 `
b110000000000000000000011111xxxxxxxxxxxxxxxx1xxxx .
b110000000000000000000011111xxxxxxxxxxxxxxxx1xxxx J"
1!
#3500
0!
#4000
1>
1U
b1 /
08
b1 Y
b1 ^
b0 _
b0 d
b10001000000000000000001111111111111111111111111 S
b10001000000000000000001111111111111111111111111 e"
b10000 @
b1000100000000 I
b1000100000000 ?"
b1000100000000 F
b100000000 L
b1000100000000 B
b1000100000000 *"
b1000100000000 H
b1000100000000 >"
b0 0
b11 m
b11 &"
01
b10001000000000000000111111000000000000000011111 .
b10001000000000000000111111000000000000000011111 J"
b11 j
b11 2"
b11 "
b11 A
b11 %"
b10 ="
b1100011 ,
1!
#4500
0!
#5000
bx _
0[
0Z
0>
0D
xU
0T
bx /
18
xV
1f
07
bx Y
bx ^
bx d
bx1xxxx00000000xxxxxxxxxxxx1111111111111111111111 S
bx1xxxx00000000xxxxxxxxxxxx1111111111111111111111 e"
b0xxxxxxxx @
1c"
0c
b0 b
b0 <
b0 H"
b1 :
b1 G"
b1 b"
1$
0C
b0xxxxxxxxxxxxxxxx '"
bx I
bx ?"
bx F
1^"
b0 =
b0 I"
b0 d"
1;
b0xxxxxxxxxxxxxxxx -"
0,"
b0 L
1E"
bx 4"
bx 6"
0."
b0 B
b0 *"
b0 H
b0 >"
bx 3"
05"
b1 0"
b0 m
bx 0
11
b1 W
b1 M"
b1 9
b1 D"
b1 P"
b1111 T"
b1111 U"
b1 V"
b1 N"
b0 O"
1R"
1S"
b100 &"
b1100010 ,
b11 ="
b10001000000000000000111111000000000000000011111 _"
b100 j
b100 2"
b100 "
b100 A
b100 %"
b0 `
bx1xxxxxxxxxxxxxxxxxxxxxxxxxxxxxxxxxxxxxxxxxxxxxx .
bx1xxxxxxxxxxxxxxxxxxxxxxxxxxxxxxxxxxxxxxxxxxxxxx J"
b0 a
1!
#5500
0!
#6000
b1000100000000000100010000000000010001000000000001000100000000 -"
1,"
1."
b0 4"
b1000100000000000100010000000000010001000000000001000100000000 6"
15"
b1000100000000000100010000000000010001000000000001000100000000 3"
1U
b1 /
b1 0
0V
b1 Y
b1 ^
b0 _
b0 d
b10001000000000000000111111000000000000000110000 .
b10001000000000000000111111000000000000000110000 J"
b10000 @
b1000100000000 I
b1000100000000 ?"
b1000100000000 F
0]
1>
0T
b100000000 L
08
0e
b1000100000000 B
b1000100000000 *"
b1000100000000 H
b1000100000000 >"
1[
1Z
0c"
bx b
b1111 <
b1111 H"
1D
0$
0^"
b1111 =
b1111 I"
b1111 d"
0;
0f
0?
b10001000000000000000001111111111111111111111111 S
b10001000000000000000001111111111111111111111111 e"
0E"
b1111 :
b1111 G"
b1111 b"
07
b1000100000000000100010000000000010001000000000001000100000000 '"
b0 W
b0 M"
b0 9
b0 D"
b0 P"
b0 T"
b0 U"
b0 V"
b0 N"
b1 O"
0R"
0S"
1C
b1000100000000000100010000000000010001000000000001000100000000 #
b1000100000000000100010000000000010001000000000001000100000000 )"
b1000100000000000100010000000000010001000000000001000100000000 ("
01
1c
b1 a
1g
b0 _"
b100 ="
b1100001 ,
b1 *
1%
b100 +
1!
#6500
0!
#7000
18
1\
1f
1c"
0c
b0 b
b0 <
b0 H"
b10 :
b10 G"
b10 b"
1^"
b0 =
b0 I"
b0 d"
1;
b1 m
1E"
17
b101 &"
1?
b10 0
11
b0xxxxxxxxxxxxxxxx #
b0xxxxxxxxxxxxxxxx )"
b0xxxxxxxxxxxxxxxx ("
b1 W
b1 M"
b1 9
b1 D"
b1 P"
b1111 T"
b1 V"
b1 W"
b10 N"
b1 O"
1R"
1S"
b10001000000000000000111111000000000000001010000 .
b10001000000000000000111111000000000000001010000 J"
b0 *
0%
b1100000 ,
b10001000000000000000111111000000000000000110000 _"
0g
b101 j
b101 2"
b101 "
b101 A
b101 %"
b0 a
1!
#7500
0!
#8000
18
1\
1F"
b11 0
1c"
0c
b0 <
b0 H"
0^"
b1 =
b1 I"
b1 d"
1;
1f
b10 m
0E"
b11 :
b11 G"
b11 b"
b110 &"
b0 W
b0 M"
b0 P"
b0 T"
b0 V"
b0 W"
b0 N"
b1 O"
0R"
0S"
b1 9
b1 D"
b1 Z"
b1111 \"
b11 X"
b0 Y"
01
b1 b
b1 `
b10001000000000000000111111000000000000001110001 .
b10001000000000000000111111000000000000001110001 J"
b110 j
b110 2"
b110 "
b110 A
b110 %"
b0 _"
b10001000000000000000111111000000000000001010000 `"
b101 ="
b1011111 ,
bx +
1!
#8500
0!
#9000
1^"
b0 =
b0 I"
b0 d"
b100 0
b100 :
b100 G"
b100 b"
1E"
0F"
b11 m
1f
11
b0 Z"
b0 \"
b0 X"
b1 Y"
b1 W
b1 M"
b1 9
b1 D"
b1 P"
b1111 T"
b1 U"
b1 V"
b11 W"
b100 N"
b0 O"
1R"
1S"
b111 &"
b1011110 ,
b110 ="
b0 `"
b10001000000000000000111111000000000000001110001 _"
b111 j
b111 2"
b111 "
b111 A
b111 %"
b0 b
b0 `
b10001000000000000000111111000000000000010010000 .
b10001000000000000000111111000000000000010010000 J"
1!
#9500
0!
#10000
xV
xU
bx /
bx _
bx d
bx Y
bx1xxxx00000000xxxxxxxxxxxxx111111111111111111111 S
bx1xxxx00000000xxxxxxxxxxxxx111111111111111111111 e"
bx ^
b0xxxxxxxx @
0>
bx I
bx ?"
bx F
b0 L
0[
0Z
b0 B
b0 *"
b0 H
b0 >"
0D
07
18
0\
1$
0C
b0xxxxxxxxxxxxxxxx '"
1F"
bx 0
b0xxxxxxxxxxxxxxxx -"
0,"
1c"
0c
b0 <
b0 H"
bx 4"
bx 6"
0."
0^"
b1 =
b1 I"
b1 d"
1;
1f
bx 3"
05"
b10 0"
b0 m
0E"
b101 :
b101 G"
b101 b"
b1000 &"
b0 W
b0 M"
b0 P"
b0 T"
b0 U"
b0 V"
b0 W"
b0 N"
b1 O"
0R"
0S"
b1 9
b1 D"
b1 Z"
b1111 \"
b101 X"
b0 Y"
01
b1 b
b1 `
bx1xxxxxxxxxxxxxxxxxxxxxxxxxxxxxxxxxxxxxxxxxxxxxx .
bx1xxxxxxxxxxxxxxxxxxxxxxxxxxxxxxxxxxxxxxxxxxxxxx J"
b1000 j
b1000 2"
b1000 "
b1000 A
b1000 %"
b0 _"
b10001000000000000000111111000000000000010010000 `"
b111 ="
b1011101 ,
1!
#10500
0!
#11000
b1000100000000000100010000000000010001000000000001000100000000 -"
1,"
1."
b0 4"
b1000100000000000100010000000000010001000000000001000100000000 6"
15"
b1000100000000000100010000000000010001000000000001000100000000 3"
1U
b1 /
b101 0
0V
b1 Y
b1 ^
b0 _
b0 d
b10001000000000000000001111111111111111111111111 S
b10001000000000000000001111111111111111111111111 e"
b10001000000000000000111111000000000000010110001 .
b10001000000000000000111111000000000000010110001 J"
b10000 @
b1000100000000 I
b1000100000000 ?"
b1000100000000 F
0]
1>
0T
b100000000 L
0e
b1000100000000 B
b1000100000000 *"
b1000100000000 H
b1000100000000 >"
08
1[
1Z
1D
b1111 =
b1111 I"
b1111 d"
0c"
bx b
b1111 <
b1111 H"
0;
b1111 :
b1111 G"
b1111 b"
0$
b1000100000000000100010000000000010001000000000001000100000000 '"
0F"
0?
0f
11
1C
b1000100000000000100010000000000010001000000000001000100000000 #
b1000100000000000100010000000000010001000000000001000100000000 )"
b1000100000000000100010000000000010001000000000001000100000000 ("
b0 9
b0 D"
b0 Z"
b0 \"
b0 X"
b1 Y"
b1 *
1%
b1000 +
b1011100 ,
b1000 ="
b0 `"
1g
1c
b1 a
1!
#11500
0!
#12000
18
1\
1f
1c"
0c
b0 b
b0 <
b0 H"
b110 :
b110 G"
b110 b"
b1 m
1^"
b0 =
b0 I"
b0 d"
1;
17
b1001 &"
1E"
b110 0
1?
b1 W
b1 M"
b1 9
b1 D"
b1 P"
b1111 T"
b1 U"
b1 V"
b101 W"
b110 N"
b0 O"
1R"
1S"
b0xxxxxxxxxxxxxxxx #
b0xxxxxxxxxxxxxxxx )"
b0xxxxxxxxxxxxxxxx ("
01
b0 `
b10001000000000000000111111000000000000011010000 .
b10001000000000000000111111000000000000011010000 J"
b0 a
0g
b1001 j
b1001 2"
b1001 "
b1001 A
b1001 %"
b10001000000000000000111111000000000000010110001 _"
b1011011 ,
b0 *
0%
1!
#12500
0!
#13000
18
1\
1F"
1c"
0c
b0 <
b0 H"
b111 0
0^"
b1 =
b1 I"
b1 d"
1;
0E"
b111 :
b111 G"
b111 b"
b10 m
1f
11
b0 W
b0 M"
b0 P"
b0 T"
b0 U"
b0 V"
b0 W"
b0 N"
b1 O"
0R"
0S"
b1 9
b1 D"
b1 Z"
b1111 \"
b111 X"
b0 Y"
b1010 &"
bx +
b1011010 ,
b1001 ="
b0 _"
b10001000000000000000111111000000000000011010000 `"
b1010 j
b1010 2"
b1010 "
b1010 A
b1010 %"
b1 b
b1 `
b10001000000000000000111111000000000000011110001 .
b10001000000000000000111111000000000000011110001 J"
1!
#13500
0!
#14000
b1000 0
1^"
b0 =
b0 I"
b0 d"
b1000 :
b1000 G"
b1000 b"
1E"
1f
b11 m
0F"
b1011 &"
b0 Z"
b0 \"
b0 X"
b1 Y"
b1 W
b1 M"
b1 9
b1 D"
b1 P"
b1111 T"
b1 U"
b1 V"
b111 W"
b1000 N"
b0 O"
1R"
1S"
01
b0 b
b0 `
b10001000000000000000111111000000000000100010000 .
b10001000000000000000111111000000000000100010000 J"
b1011 j
b1011 2"
b1011 "
b1011 A
b1011 %"
b0 `"
b10001000000000000000111111000000000000011110001 _"
b1010 ="
b1011001 ,
1!
#14500
0!
#15000
xV
xU
bx /
bx _
bx d
bx Y
bx1xxxx00000000xxxxxxxxxxxxx111111111111111111111 S
bx1xxxx00000000xxxxxxxxxxxxx111111111111111111111 e"
bx ^
b0xxxxxxxx @
0>
bx I
bx ?"
bx F
b0 L
0[
0Z
b0 B
b0 *"
b0 H
b0 >"
0D
18
0\
07
1F"
1$
0C
b0xxxxxxxxxxxxxxxx '"
1c"
0c
b0 <
b0 H"
b0xxxxxxxxxxxxxxxx -"
0,"
bx 0
0^"
b1 =
b1 I"
b1 d"
1;
bx 4"
bx 6"
0."
0E"
b1001 :
b1001 G"
b1001 b"
bx 3"
05"
b11 0"
b0 m
1f
11
b0 W
b0 M"
b0 P"
b0 T"
b0 U"
b0 V"
b0 W"
b0 N"
b1 O"
0R"
0S"
b1 9
b1 D"
b1 Z"
b1111 \"
b1001 X"
b0 Y"
b1100 &"
b1011000 ,
b1011 ="
b0 _"
b10001000000000000000111111000000000000100010000 `"
b1100 j
b1100 2"
b1100 "
b1100 A
b1100 %"
b1 b
b1 `
bx1xxxxxxxxxxxxxxxxxxxxxxxxxxxxxxxxxxxxxxxxxxxxxx .
bx1xxxxxxxxxxxxxxxxxxxxxxxxxxxxxxxxxxxxxxxxxxxxxx J"
1!
#15500
0!
#16000
b1000100000000000100010000000000010001000000000001000100000000 -"
1,"
1."
b0 4"
b1000100000000000100010000000000010001000000000001000100000000 6"
15"
b1000100000000000100010000000000010001000000000001000100000000 3"
1U
b1 /
b1001 0
0V
b1 Y
b1 ^
b0 _
b0 d
b10001000000000000000001111111111111111111111111 S
b10001000000000000000001111111111111111111111111 e"
b10001000000000000000111111000000000000100110001 .
b10001000000000000000111111000000000000100110001 J"
b10000 @
b1000100000000 I
b1000100000000 ?"
b1000100000000 F
0]
1>
0T
b100000000 L
08
0e
b1000100000000 B
b1000100000000 *"
b1000100000000 H
b1000100000000 >"
1[
1Z
b1111 =
b1111 I"
b1111 d"
0c"
bx b
b1111 <
b1111 H"
1D
0$
0;
b1111 :
b1111 G"
b1111 b"
0f
0?
0F"
07
b1000100000000000100010000000000010001000000000001000100000000 '"
b0 9
b0 D"
b0 Z"
b0 \"
b0 X"
b1 Y"
1C
b1000100000000000100010000000000010001000000000001000100000000 #
b1000100000000000100010000000000010001000000000001000100000000 )"
b1000100000000000100010000000000010001000000000001000100000000 ("
01
1c
b1 a
1g
b0 `"
b1100 ="
b1010111 ,
b1 *
1%
b1100 +
1!
#16500
0!
#17000
18
1\
1f
1c"
0c
b0 b
b0 <
b0 H"
b1010 :
b1010 G"
b1010 b"
1^"
b0 =
b0 I"
b0 d"
1;
b1 m
1E"
17
b1101 &"
1?
b1010 0
11
b0xxxxxxxxxxxxxxxx #
b0xxxxxxxxxxxxxxxx )"
b0xxxxxxxxxxxxxxxx ("
b1 W
b1 M"
b1 9
b1 D"
b1 P"
b1111 T"
b1 U"
b1 V"
b1001 W"
b1010 N"
b0 O"
1R"
1S"
b0 *
0%
b1010110 ,
b10001000000000000000111111000000000000100110001 _"
0g
b1101 j
b1101 2"
b1101 "
b1101 A
b1101 %"
b0 `
b10001000000000000000111111000000000000101010000 .
b10001000000000000000111111000000000000101010000 J"
b0 a
1!
#17500
0!
#18000
18
1\
1F"
b1011 0
1c"
0c
b0 <
b0 H"
0^"
b1 =
b1 I"
b1 d"
1;
1f
b10 m
0E"
b1011 :
b1011 G"
b1011 b"
b1110 &"
b0 W
b0 M"
b0 P"
b0 T"
b0 U"
b0 V"
b0 W"
b0 N"
b1 O"
0R"
0S"
b1 9
b1 D"
b1 Z"
b1111 \"
b1011 X"
b0 Y"
01
b1 b
b1 `
b10001000000000000000111111000000000000101110001 .
b10001000000000000000111111000000000000101110001 J"
b1110 j
b1110 2"
b1110 "
b1110 A
b1110 %"
b0 _"
b10001000000000000000111111000000000000101010000 `"
b1101 ="
b1010101 ,
bx +
1!
#18500
0!
#19000
1^"
b0 =
b0 I"
b0 d"
b1100 0
b1100 :
b1100 G"
b1100 b"
1E"
0F"
b11 m
1f
11
b0 Z"
b0 \"
b0 X"
b1 Y"
b1 W
b1 M"
b1 9
b1 D"
b1 P"
b1111 T"
b1 U"
b1 V"
b1011 W"
b1100 N"
b0 O"
1R"
1S"
b1111 &"
b1010100 ,
b1110 ="
b0 `"
b10001000000000000000111111000000000000101110001 _"
b1111 j
b1111 2"
b1111 "
b1111 A
b1111 %"
b0 b
b0 `
b10001000000000000000111111000000000000110010000 .
b10001000000000000000111111000000000000110010000 J"
1!
#19500
0!
#20000
xV
xU
bx /
bx _
bx d
bx Y
bx1xxxx00000000xxxxxxxxxxxxx111111111111111111111 S
bx1xxxx00000000xxxxxxxxxxxxx111111111111111111111 e"
bx ^
b0xxxxxxxx @
0>
bx I
bx ?"
bx F
b0 L
0[
0Z
b0 B
b0 *"
b0 H
b0 >"
0D
07
18
0\
1$
0C
b0xxxxxxxxxxxxxxxx '"
1F"
bx 0
b0xxxxxxxxxxxxxxxx -"
0,"
1c"
0c
b0 <
b0 H"
bx 4"
bx 6"
0."
0^"
b1 =
b1 I"
b1 d"
1;
1f
bx 3"
05"
b100 0"
b0 m
0E"
b1101 :
b1101 G"
b1101 b"
b10000 &"
b0 W
b0 M"
b0 P"
b0 T"
b0 U"
b0 V"
b0 W"
b0 N"
b1 O"
0R"
0S"
b1 9
b1 D"
b1 Z"
b1111 \"
b1101 X"
b0 Y"
01
b1 b
b1 `
bx1xxxxxxxxxxxxxxxxxxxxxxxxxxxxxxxxxxxxxxxxxxxxxx .
bx1xxxxxxxxxxxxxxxxxxxxxxxxxxxxxxxxxxxxxxxxxxxxxx J"
b10000 j
b10000 2"
b10000 "
b10000 A
b10000 %"
b0 _"
b10001000000000000000111111000000000000110010000 `"
b1111 ="
b1010011 ,
1!
#20500
0!
