cpu.vcd
$date
	Wed May 13 17:15:06 2015
$end
$version
	Icarus Verilog
$end
$timescale
	1ps
$end
$scope module main $end
$scope module i0 $end
$scope module i0 $end
$var wire 1 ! clk $end
$var wire 16 " fetchAddr [15:0] $end
$var wire 64 # fetchData [63:0] $end
$var wire 1 $ fetchEnable $end
$var wire 1 % fetchReady $end
$var wire 16 & loadAddr [15:0] $end
$var wire 64 ' loadData [63:0] $end
$var wire 1 ( loadEnable $end
$var wire 1 ) loadReady $end
$var reg 16 * fetchCounter [15:0] $end
$var reg 16 + fetchPtr [15:0] $end
$var integer 32 , i [31:0] $end
$upscope $end
$upscope $end
$upscope $end
$scope module main $end
$scope module i0 $end
$scope module pre $end
$var wire 1 ! clk $end
$var wire 44 - init [43:0] $end
$var wire 1 . jmp $end
$var wire 12 / jmpAddr [11:0] $end
$var wire 44 0 laPCEntry [43:0] $end
$var wire 16 1 laPCEntryAddr [15:0] $end
$var wire 2 2 laPCEntryState [1:0] $end
$var wire 14 3 laPCEntryStride [13:0] $end
$var wire 1 4 laPCEntryV $end
$var wire 5 5 laPCIndex [4:0] $end
$var wire 16 6 laPCNextAddress [15:0] $end
$var wire 11 7 laPCTag [10:0] $end
$var wire 1 8 memAccess $end
$var wire 16 9 memAddress [15:0] $end
$var wire 44 : none [43:0] $end
$var wire 16 ; orlOutput [15:0] $end
$var wire 16 < pc [15:0] $end
$var wire 44 = pcEntry [43:0] $end
$var wire 16 > pcEntryAddr [15:0] $end
$var wire 1 ? pcEntryHit $end
$var wire 2 @ pcEntryState [1:0] $end
$var wire 14 A pcEntryStride [13:0] $end
$var wire 11 B pcEntryTag [10:0] $end
$var wire 1 C pcEntryV $end
$var wire 5 D pcIndex [4:0] $end
$var wire 16 E pcNextAddress [15:0] $end
$var wire 11 F pcTag [10:0] $end
$var wire 44 G stable [43:0] $end
$var wire 1 H submitMemRequest $end
$var wire 44 I transient [43:0] $end
$var integer 32 J i [31:0] $end
$var reg 16 K laPC [15:0] $end
$var reg 1 L memRequest $end
$var reg 1 M orlCheck $end
$var reg 16 N requestAddress [15:0] $end
$upscope $end
$upscope $end
$upscope $end
$scope module main $end
$var wire 51 O addRS [50:0] $end
$var wire 16 P addRSv0 [15:0] $end
$var wire 16 Q addRSv1 [15:0] $end
$var wire 1 ! clk $end
$var wire 1 R cycle $end
$var wire 1 8 dData $end
$var wire 16 S dmemIn [15:0] $end
$var wire 16 T dmemOut [15:0] $end
$var wire 1 U dmemReady $end
$var wire 1 . earlyJump $end
$var wire 1 V fastFetch $end
$var wire 1 W finishedInst $end
$var wire 2 X floatFilled [1:0] $end
$var wire 16 Y floatOut [15:0] $end
$var wire 1 Z floatOutReady $end
$var wire 4 [ floatOutReg [3:0] $end
$var wire 4 \ floatOutSrc [3:0] $end
$var wire 1 ] floatWE $end
$var wire 1 ^ iRead $end
$var wire 16 _ ii [15:0] $end
$var wire 16 ` imemIn [15:0] $end
$var wire 16 a imemOut [15:0] $end
$var wire 1 b imemReady $end
$var wire 1 c inEnable $end
$var wire 1 d inReady $end
$var wire 16 e inst [15:0] $end
$var wire 1 f isJeq $end
$var wire 16 g isbIn [15:0] $end
$var wire 16 h isbOut [15:0] $end
$var wire 1 i jeq $end
$var wire 1 j jeqTaken $end
$var wire 12 k jmpDest [11:0] $end
$var wire 2 l loadFilled [1:0] $end
$var wire 16 m loadOut [15:0] $end
$var wire 1 n loadOutReady $end
$var wire 4 o loadOutReg [3:0] $end
$var wire 4 p loadOutSrc [3:0] $end
$var wire 51 q loadRS [50:0] $end
$var wire 1 r loadWE $end
$var wire 1 s needsFloat $end
$var wire 1 t needsLoad $end
$var wire 4 u nextFloatRA [3:0] $end
$var wire 4 v nextLoadRA [3:0] $end
$var wire 4 w opcode [3:0] $end
$var wire 1 x outEnable $end
$var wire 1 y outReady $end
$var wire 1 z overwriteAdd $end
$var wire 1 { overwriteLoad $end
$var wire 1 | pause $end
$var wire 4 } ra [3:0] $end
$var wire 4 ~ rb [3:0] $end
$var wire 16 !" reg0Src [15:0] $end
$var wire 16 "" reg0V [15:0] $end
$var wire 4 #" regsSourceAdd [3:0] $end
$var wire 1 $" regsValidAdd $end
$var wire 4 %" rt [3:0] $end
$var wire 4 &" source2 [3:0] $end
$var wire 1 '" validReg $end
$var wire 1 (" willStall $end
$var wire 1 )" writingFloat $end
$var reg 1 *" fetching $end
$var reg 1 +" finish $end
$var integer 32 ," i [31:0] $end
$var reg 16 -" pc [15:0] $end
$var reg 1 ." stallDispatch $end
$var reg 1 /" stallFetch $end
$upscope $end
$scope module main $end
$scope module i0 $end
$var wire 2 0" blockIndex [1:0] $end
$var wire 1 ! clk $end
$var wire 16 1" dAddress [15:0] $end
$var wire 16 2" dAddressRead [15:0] $end
$var wire 16 3" dAddressWrite [15:0] $end
$var wire 2 4" dBlockIndex [1:0] $end
$var wire 64 5" dBlockOut [63:0] $end
$var wire 80 6" dCache0 [79:0] $end
$var wire 80 7" dCache1 [79:0] $end
$var wire 80 8" dCache2 [79:0] $end
$var wire 80 9" dCache3 [79:0] $end
$var wire 80 :" dCache4 [79:0] $end
$var wire 80 ;" dCache5 [79:0] $end
$var wire 80 <" dCacheAssign [79:0] $end
$var wire 64 =" dData [63:0] $end
$var wire 16 >" dDataOut [15:0] $end
$var wire 4 ?" dIndex [3:0] $end
$var wire 4 @" dIndexW [3:0] $end
$var wire 16 A" dMemAddress [15:0] $end
$var wire 1 ( dMemEnable $end
$var wire 1 U dMemReady $end
$var wire 1 8 dReadEnable $end
$var wire 1 ) dReady $end
$var wire 16 B" dTag [15:0] $end
$var wire 1 C" dataComplete $end
$var wire 1 D" dcacheHit $end
$var wire 64 E" dcacheVal [63:0] $end
$var wire 1 F" dcachev1Hit $end
$var wire 1 G" dcachev2Hit $end
$var wire 80 H" dvalue1 [79:0] $end
$var wire 16 I" dvalue1Tag [15:0] $end
$var wire 1 J" dvalue1V $end
$var wire 64 K" dvalue1Val [63:0] $end
$var wire 80 L" dvalue2 [79:0] $end
$var wire 16 M" dvalue2Tag [15:0] $end
$var wire 1 N" dvalue2V $end
$var wire 64 O" dvalue2Val [63:0] $end
$var wire 16 P" iAddress [15:0] $end
$var wire 16 Q" iAddressReal [15:0] $end
$var wire 64 R" iBlockOut [63:0] $end
$var wire 80 S" iCacheAssign [79:0] $end
$var wire 64 T" iData [63:0] $end
$var wire 16 U" iDataOut [15:0] $end
$var wire 1 b iMemReady $end
$var wire 1 ^ iReadEnable $end
$var wire 1 % iReady $end
$var wire 16 V" iTag [15:0] $end
$var wire 1 W" icacheHit $end
$var wire 64 X" icacheVal [63:0] $end
$var wire 1 Y" icachev1Hit $end
$var wire 1 Z" icachev2Hit $end
$var wire 4 [" index [3:0] $end
$var wire 1 . jmp $end
$var wire 12 \" jmpAddr [11:0] $end
$var wire 1 H memRequest $end
$var wire 16 ]" orlOutput [15:0] $end
$var wire 16 ^" pc [15:0] $end
$var wire 16 _" requestAddress [15:0] $end
$var wire 80 `" value1 [79:0] $end
$var wire 16 a" value1Tag [15:0] $end
$var wire 1 b" value1V $end
$var wire 64 c" value1Val [63:0] $end
$var wire 80 d" value2 [79:0] $end
$var wire 16 e" value2Tag [15:0] $end
$var wire 1 f" value2V $end
$var wire 64 g" value2Val [63:0] $end
$var reg 16 h" daddr [15:0] $end
$var integer 32 i" i [31:0] $end
$var reg 16 j" raddr [15:0] $end
$upscope $end
$upscope $end
$scope module main $end
$scope module ib $end
$var wire 1 ! clk $end
$var wire 16 k" dataIn [15:0] $end
$var wire 16 l" dataOut [15:0] $end
$var wire 1 m" empty $end
$var wire 1 c inEnable $end
$var wire 1 d inReady $end
$var wire 1 x outEnable $end
$var wire 1 y outReady $end
$var wire 1 | pause $end
$var reg 5 n" count [4:0] $end
$var reg 5 o" head [4:0] $end
$var reg 5 p" tail [4:0] $end
$upscope $end
$upscope $end
$scope module main $end
$scope module add $end
$var wire 2 q" RAFilled [1:0] $end
$var wire 1 ! clk $end
$var wire 1 r" float0Ready $end
$var wire 1 s" float1Ready $end
$var wire 16 t" floatOut [15:0] $end
$var wire 1 Z floatOutReady $end
$var wire 4 u" floatOutReg [3:0] $end
$var wire 4 v" floatOutSrc [3:0] $end
$var wire 1 f isJeq $end
$var wire 1 j jeqTaken $end
$var wire 51 w" line [50:0] $end
$var wire 16 x" loadOut [15:0] $end
$var wire 1 n loadOutReady $end
$var wire 4 y" loadOutSrc [3:0] $end
$var wire 4 z" nextRA [3:0] $end
$var wire 16 {" rs0Add [15:0] $end
$var wire 16 |" rs0Jeq [15:0] $end
$var wire 4 }" rs0Opcode [3:0] $end
$var wire 4 ~" rs0Reg [3:0] $end
$var wire 4 !# rs0src0 [3:0] $end
$var wire 4 "# rs0src1 [3:0] $end
$var wire 16 ## rs0v0 [15:0] $end
$var wire 1 $# rs0v0v $end
$var wire 16 %# rs0v1 [15:0] $end
$var wire 1 &# rs0v1v $end
$var wire 16 '# rs1Add [15:0] $end
$var wire 16 (# rs1Jeq [15:0] $end
$var wire 4 )# rs1Opcode [3:0] $end
$var wire 4 *# rs1Reg [3:0] $end
$var wire 4 +# rs1src0 [3:0] $end
$var wire 4 ,# rs1src1 [3:0] $end
$var wire 16 -# rs1v0 [15:0] $end
$var wire 16 .# rs1v1 [15:0] $end
$var wire 1 ] writeEnabled $end
$var reg 51 /# rs0 [50:0] $end
$var reg 51 0# rs1 [50:0] $end
$upscope $end
$upscope $end
$scope module main $end
$scope module load $end
$var wire 2 1# RAFilled [1:0] $end
$var wire 1 ! clk $end
$var wire 16 2# floatOut [15:0] $end
$var wire 1 3# floatOutReady $end
$var wire 4 4# floatOutSrc [3:0] $end
$var wire 51 5# line [50:0] $end
$var wire 1 6# load0Ready $end
$var wire 1 7# load1Ready $end
$var wire 1 8 loadMem $end
$var wire 16 8# loadOut [15:0] $end
$var wire 1 n loadOutReady $end
$var wire 4 9# loadOutReg [3:0] $end
$var wire 4 :# loadOutSrc [3:0] $end
$var wire 16 ;# memAddr [15:0] $end
$var wire 16 <# memOut [15:0] $end
$var wire 1 U memReady $end
$var wire 4 =# nextRA [3:0] $end
$var wire 16 ># rs0Addr [15:0] $end
$var wire 4 ?# rs0Opcode [3:0] $end
$var wire 4 @# rs0Reg [3:0] $end
$var wire 4 A# rs0src0 [3:0] $end
$var wire 16 B# rs1Addr [15:0] $end
$var wire 4 C# rs1Opcode [3:0] $end
$var wire 4 D# rs1Reg [3:0] $end
$var wire 4 E# rs1src0 [3:0] $end
$var wire 1 r writeEnabled $end
$var reg 1 F# fetching $end
$var reg 51 G# rs0 [50:0] $end
$var reg 51 H# rs1 [50:0] $end
$upscope $end
$upscope $end
$enddefinitions $end
#0
$dumpvars
b0 H#
b0 G#
0F#
b0 E#
b0 D#
b0 C#
b0 B#
b0 A#
b0 @#
b0 ?#
b0 >#
b10 =#
bx <#
b1111 ;#
b1111 :#
b1111 9#
bx 8#
07#
06#
bx1xxxx00000000xxxxxxxxxxxxx111111111111111111111 5#
b1111 4#
03#
b1111 2#
b0 1#
b0 0#
b0 /#
b0 .#
b0 -#
b0 ,#
b0 +#
b0 *#
b0 )#
b1 (#
b0 '#
0&#
b0 %#
0$#
b0 ##
b0 "#
b0 !#
b0 ~"
b0 }"
b1 |"
b0 {"
b0 z"
b1111 y"
bx x"
bx1xxxxxxxxxxxxxxxxxxxxxxxxxxxxxxxxxxxxxxxxxxxxxx w"
b1111 v"
b1111 u"
b1111 t"
0s"
0r"
b0 q"
b0 p"
b0 o"
b0 n"
1m"
bx l"
b0 k"
bx j"
b10000 i"
bx h"
bx g"
0f"
bx e"
bx d"
bx c"
0b"
bx a"
bx `"
b0 _"
b0 ^"
bz ]"
b0 \"
b0 ["
0Z"
0Y"
b0xxxxxxxxxxxxxxxx X"
0W"
b0 V"
b0 U"
b0xxxxxxxxxxxxxxxx T"
b0xxxxxxxxxxxxxxxx S"
b0xxxxxxxxxxxxxxxx R"
b0 Q"
b0 P"
bx O"
xN"
bx M"
bx L"
bx K"
xJ"
bx I"
bx H"
xG"
xF"
bx E"
xD"
0C"
b0xxxxxxxxxx B"
b0 A"
bz @"
bx ?"
bx >"
b0xxxxxxxxxxxxxxxx ="
b0xxxxxxxxxx000000000000000000000000000000000000000000000000xxxxxxxxxxxxxxxx <"
bz ;"
bz :"
bz 9"
bz 8"
bz 7"
bz 6"
bx 5"
bx 4"
bz 3"
bx 2"
b1111 1"
b0 0"
0/"
0."
b0 -"
b10000 ,"
0+"
0*"
0)"
0("
x'"
bz &"
bx %"
1$"
bx #"
b1 ""
b0xxxx !"
bx ~
bx }
0|
0{
0z
0y
0x
bx w
b10 v
b0 u
xt
xs
0r
bx1xxxx00000000xxxxxxxxxxxxx111111111111111111111 q
b1111 p
b1111 o
0n
bx m
b0 l
b0 k
0j
0i
bx h
b0 g
0f
bx e
1d
0c
0b
b0 a
b0 `
b0xxxxxxxx _
1^
0]
b1111 \
b1111 [
0Z
b1111 Y
b0 X
xW
0V
0U
bx T
b1111 S
0R
bx Q
bx P
bx1xxxxxxxxxxxxxxxxxxxxxxxxxxxxxxxxxxxxxxxxxxxxxx O
b0 N
0M
0L
b0 K
b100000 J
b10000000000000000000000011110000000000111101 I
0H
b10000000000000000000000011110000000000111110 G
b0 F
b11110 E
b0 D
0C
b0 B
b0 A
b0 @
0?
b0 >
b0 =
b0 <
bz ;
b10000000000000000000000011110000000000111111 :
b1111 9
08
b0 7
b11110 6
b0 5
04
b0 3
b0 2
b0 1
b0 0
b0 /
0.
b10000000000000000000000011110000000000000000 -
b1100100 ,
bx +
b0 *
0)
0(
b0xxxxxxxxxxxxxxxx '
b0 &
0%
1$
b0xxxxxxxxxxxxxxxx #
b0 "
1!
$end
#500
0!
#1000
0s
0t
1W
b0 w
1'"
b0 }
b100 ~
b0 %"
b10000000000000000000001111111111111111111111111 q
b10000000000000000000001111111111111111111111111 5#
b10000xxxxxxxxxxxxxxxx1xxxxxxxxxxxxxxxxxxxx1xxxx O
b10000xxxxxxxxxxxxxxxx1xxxxxxxxxxxxxxxxxxxx1xxxx w"
b100 _
b1000000 h
b1000000 l"
b1000000 e
0]
0r
b1000000 /
b1000000 k
b1000000 \"
b1000000 a
b1000000 U"
b1000000 g
b1000000 k"
1y
1x
1c
0$
b1000000000000000000000100000001000000110101000000010010 R"
0^
1R
1b
b1000000000000000000000100000001000000110101000000010010 #
b1000000000000000000000100000001000000110101000000010010 T"
b1000000000000000000000100000001000000110101000000010010 S"
b1 5
bx @"
b1 *
1%
b0 +
b1 K
bx 3"
bx ;
bx ]"
b0 j"
1*"
b1100100 ,
b1100100 J
1!
#1500
0!
#2000
b100 Q
0]
0r
0s
0t
1W
b0 w
1'"
b0 }
b0 ~
b1 %"
b110000000000000000000001111111111111111111111111 q
b110000000000000000000001111111111111111111111111 5#
b0 _
b1 h
b1 l"
b1 e
b1 /
b1 k
b1 \"
b1 a
b1 U"
b1 g
b1 k"
1y
1x
b1 0"
1c
1V
b1 Q"
b1000000000000000000000100000001000000110101000000010010 X"
b100 P
1^
1W"
b1000000000000000000000100000001000000110101000000010010 R"
b1 D
1Y"
b0 a"
b1000000000000000000000100000001000000110101000000010010 c"
b10 5
1b
b0xxxxxxxxxxxxxxxx #
b0xxxxxxxxxxxxxxxx T"
b0xxxxxxxxxxxxxxxx S"
0R
b1111 !"
b110000000000000000010011111000000000000010011111 O
b110000000000000000010011111000000000000010011111 w"
0*"
b1 -"
b1 <
b1 ^"
b1 "
b1 `
b1 P"
1b"
b1000000000000000000000100000001000000110101000000010010 `"
b10 K
b0 *
0%
b1100100 J
b1100100 ,
1!
#2500
0!
#3000
b0 P
b1 }
b11 %"
b1110000000000000000000001111111111111111111111111 q
b1110000000000000000000001111111111111111111111111 5#
b1110000000000000000000011111000000000000010011111 O
b1110000000000000000000011111000000000000010011111 w"
b10000 _
b100000011 h
b100000011 l"
b100000011 e
b100000011 /
b100000011 k
b100000011 \"
b100000011 a
b100000011 U"
b100000011 g
b100000011 k"
b10 0"
1R
b11 5
b10 D
b10 Q"
bx +
b11 K
b1 j"
b10 -"
b10 <
b10 ^"
b10 "
b10 `
b10 P"
b1100100 ,
b1100100 J
1!
#3500
0!
#4000
1]
1s
1r
b100 P
b0 Q
1t
0W
b101 w
b0 }
b1 ~
b10 %"
b1010101000000000000000000000111111111111111111111 q
b1010101000000000000000000000111111111111111111111 5#
b1010101000000000000010011111000000000000000011111 O
b1010101000000000000010011111000000000000000011111 w"
b1 _
b101000000010010 h
b101000000010010 l"
b101000000010010 e
b10010 /
b10010 k
b10010 \"
b101000000010010 a
b101000000010010 U"
b101000000010010 g
b101000000010010 k"
b11 0"
b11 D
b11 Q"
b100 5
0R
b11 -"
b11 <
b11 ^"
b11 "
b11 `
b11 P"
b10 j"
b100 K
b1100100 J
b1100100 ,
1!
#4500
0!
#5000
bx P
x'"
bx }
0y
0x
0]
0c
xs
0r
bx Q
0z
xt
1W
0V
bx w
bx ~
bx %"
bx1xxxxxxxxxxxxxxxxxxxxxxxxxxxxxxxxxxxxxxxxxxxxxx O
bx1xxxxxxxxxxxxxxxxxxxxxxxxxxxxxxxxxxxxxxxxxxxxxx w"
b0xxxxxxxx _
13#
0$"
b10 #"
b10 [
b10 u"
b100 Y
b100 t"
b100 2#
1$
0b
b0xxxxxxxxxxxxxxxx R"
bx h
bx l"
bx e
b0 \
b0 v"
b0 4#
1Z
b0xxxxxxxxxxxxxxxx X"
0W"
b0 /
b0 k
b0 \"
1r"
bx a"
bx c"
0Y"
b0 a
b0 U"
b0 g
b0 k"
bx1xxxx00000000xxxxxxxxxxxx1111111111111111111111 q
bx1xxxx00000000xxxxxxxxxxxx1111111111111111111111 5#
bx `"
0b"
b1 ["
b0 0"
1R
b101 5
b1 u
b1 z"
b1 X
b1 q"
b101 }"
b1111 !#
b1111 "#
b10 ~"
b100 {"
b0 |"
b100 ##
1$#
1&#
b11 v
b11 =#
b1 l
b1 1#
b101 ?#
b10 @#
b100 D
b100 Q"
b101 K
b11 j"
b1010101000000000000010011111000000000000000011111 /#
b1010101000000000000000000000111111111111111111111 G#
b100 -"
b100 <
b100 ^"
b100 "
b100 `
b100 P"
b10 &"
b1100100 ,
b1100100 J
1!
#5500
0!
#6000
b0 m
b0 x"
b0 8#
b0 T
b0 >"
b0 <#
b10 P
b10000 Q
b0xxxxxxxxxxxxxxxx E"
b0xxxxxxxxxxxxxxxx 5"
0{
1s
0t
0D"
b110 w
0'"
b10 }
b11 ~
b11 %"
b1110110000000000000001000010000000000001000011111 O
b1110110000000000000001000010000000000001000011111 w"
b100011 _
1i
0F"
0G"
b110001000110011 h
b110001000110011 l"
b110001000110011 e
0J"
0N"
b1 ?"
b0 B"
b0xxxxxxxxxxxxxxxx <"
b0 4"
1(
0n
0U
0|
1]
0r
b1000110011 /
b1000110011 k
b1000110011 \"
b100 2"
b100 &
b100 A"
0W
0("
b110001000110011 a
b110001000110011 U"
b110001000110011 g
b110001000110011 k"
18
1y
1x
b1000 6
b1000 E
b10000000000000000000000001000000000000010011 :
b10000000000000000000000001000000000000010010 G
b10000000000000000000000001000000000000010001 I
b10000000000000000000000001000000000000000000 -
b100 9
b100 S
b100 1"
b100 ;#
b10 p
b10 y"
b10 :#
b10 o
b10 9#
03#
1c
0$
16#
b1111 \
b1111 v"
b1111 4#
0Z
0^
b1110110000000000000000001111111111111111111111111 q
b1110110000000000000000001111111111111111111111111 5#
0r"
1$"
bx #"
b1111 [
b1111 u"
b1111 Y
b1111 t"
b1111 2#
0V
b110001000110011000100010000000100100000000000110011000000000000 R"
b100 >#
b0 u
b0 z"
b0 X
b0 q"
b0 }"
b0 !#
b0 "#
b0 ~"
b0 {"
b1 |"
b0 ##
0$#
0&#
b110 5
1b
b110001000110011000100010000000100100000000000110011000000000000 #
b110001000110011000100010000000100100000000000110011000000000000 T"
b110001000110011000100010000000100100000000000110011000000000000 S"
0R
1*"
b1010101000000000000010010000111111111111111111111 G#
b0 /#
b100 j"
b110 K
b1 *
1%
b100 +
b1100100 J
b1100100 ,
1!
#6500
0!
#7000
bx P
bx Q
b1000110011 /
b1000110011 k
b1000110011 \"
bx 5"
xs
xt
xW
b110001000110011 a
b110001000110011 U"
b110001000110011 g
b110001000110011 k"
bx E"
bx w
x'"
bx }
bx ~
bx %"
bx1xxxx00000000xxxxxxxxxxxx1111111111111111111111 q
bx1xxxx00000000xxxxxxxxxxxx1111111111111111111111 5#
bx1xxxxxxxxxxxxxxxxxxxxxxxxxxxxxxxxxxxxxxxxxxxxxx O
bx1xxxxxxxxxxxxxxxxxxxxxxxxxxxxxxxxxxxxxxxxxxxxxx w"
b0xxxxxxxx _
xD"
bx h
bx l"
bx e
xF"
xG"
bx m
bx x"
bx 8#
bx T
bx >"
bx <#
0]
b110001000110011000100010000000100100000000000110011000000000000 X"
xJ"
xN"
bx ?"
b0xxxxxxxxxx B"
b0xxxxxxxxxx000000000000000000000000000000000000000000000000xxxxxxxxxxxxxxxx <"
bx 4"
0(
b110001000110011000100010000000100100000000000110011000000000000 R"
b10000000000000000000000001000000000000000001 I
b10000000000000000000000001000000000000000010 G
b10000000000000000000000001000000000000000011 :
1W"
bx 2"
b0 &
b0 A"
0y
0x
0i
1R
1b
b0xxxxxxxxxxxxxxxx #
b0xxxxxxxxxxxxxxxx T"
b0xxxxxxxxxxxxxxxx S"
b111 5
1C
b100 E
b100 >
1Y"
b0 a"
b110001000110011000100010000000100100000000000110011000000000000 c"
b1 u
b1 z"
b1 X
b1 q"
b110 }"
b10 !#
b1111 "#
b11 ~"
b10 ##
b10010 {"
b0 |"
b10000 %#
1&#
08
0c
b0 *
0%
b111 K
b10000000000000000000000001000000000000000000 =
1b"
b110001000110011000100010000000100100000000000110011000000000000 `"
b100 h"
b1110110000000000000001000010000000000001000011111 /#
1F#
1/"
0*"
b1100100 ,
b1100100 J
1!
#7500
0!
#8000
b1000 5
0R
b1000 K
bx +
b1100100 J
b1100100 ,
1!
#8500
0!
#9000
1R
b1001 5
b1001 K
b1100100 ,
b1100100 J
1!
#9500
0!
#10000
b1010 5
0R
b1010 K
b1100100 J
b1100100 ,
1!
#10500
0!
#11000
1R
b1011 5
b1011 K
b1100100 ,
b1100100 J
1!
#11500
0!
#12000
b1100 5
0R
b1100 K
b1100100 J
b1100100 ,
1!
#12500
0!
#13000
1R
b1101 5
b1101 K
b1100100 ,
b1100100 J
1!
#13500
0!
#14000
b1110 5
0R
b1110 K
b1100100 J
b1100100 ,
1!
#14500
0!
#15000
1R
b1111 5
b1111 K
b1100100 ,
b1100100 J
1!
#15500
0!
#16000
b10000 5
0R
b10000 K
b1100100 J
b1100100 ,
1!
#16500
0!
#17000
1R
b10001 5
b10001 K
b1100100 ,
b1100100 J
1!
#17500
0!
#18000
b10010 5
0R
b10010 K
b1100100 J
b1100100 ,
1!
#18500
0!
#19000
1R
b10011 5
b10011 K
b1100100 ,
b1100100 J
1!
#19500
0!
#20000
b10100 5
0R
b10100 K
b1100100 J
b1100100 ,
1!
#20500
0!
#21000
1R
b10101 5
b10101 K
b1100100 ,
b1100100 J
1!
#21500
0!
#22000
b10110 5
0R
b10110 K
b1100100 J
b1100100 ,
1!
#22500
0!
#23000
1R
b10111 5
b10111 K
b1100100 ,
b1100100 J
1!
#23500
0!
#24000
b11000 5
0R
b11000 K
b1100100 J
b1100100 ,
1!
#24500
0!
#25000
1R
b11001 5
b11001 K
b1100100 ,
b1100100 J
1!
#25500
0!
#26000
b11010 5
0R
b11010 K
b1100100 J
b1100100 ,
1!
#26500
0!
#27000
1R
b11011 5
b11011 K
b1100100 ,
b1100100 J
1!
#27500
0!
#28000
b11100 5
0R
b11100 K
b1100100 J
b1100100 ,
1!
#28500
0!
#29000
1R
b11101 5
b11101 K
b1100100 ,
b1100100 J
1!
#29500
0!
#30000
b11110 5
0R
b11110 K
b1100100 J
b1100100 ,
1!
#30500
0!
#31000
1R
b11111 5
b11111 K
b1100100 ,
b1100100 J
1!
#31500
0!
#32000
b1 7
b0 5
x4
bx 6
bx 1
bx 3
bx 2
0R
b100000 K
bx 0
b1100100 J
b1100100 ,
1!
#32500
0!
#33000
1R
b1 5
b100001 K
b1100100 ,
b1100100 J
1!
#33500
0!
#34000
b10 5
0R
b100010 K
b1100100 J
b1100100 ,
1!
#34500
0!
#35000
1R
b11 5
b100011 K
b1100100 ,
b1100100 J
1!
#35500
0!
#36000
b100 5
0R
b100100 K
b1100100 J
b1100100 ,
1!
#36500
0!
#37000
1R
b101 5
b100101 K
b1100100 ,
b1100100 J
1!
#37500
0!
#38000
b110 5
0R
b100110 K
b1100100 J
b1100100 ,
1!
#38500
0!
#39000
1R
b111 5
b100111 K
b1100100 ,
b1100100 J
1!
#39500
0!
#40000
b1000 5
0R
b101000 K
b1100100 J
b1100100 ,
1!
#40500
0!
#41000
1R
b1001 5
b101001 K
b1100100 ,
b1100100 J
1!
#41500
0!
#42000
b1010 5
0R
b101010 K
b1100100 J
b1100100 ,
1!
#42500
0!
#43000
1R
b1011 5
b101011 K
b1100100 ,
b1100100 J
1!
#43500
0!
#44000
b1100 5
0R
b101100 K
b1100100 J
b1100100 ,
1!
#44500
0!
#45000
1R
b1101 5
b101101 K
b1100100 ,
b1100100 J
1!
#45500
0!
#46000
b1110 5
0R
b101110 K
b1100100 J
b1100100 ,
1!
#46500
0!
#47000
1R
b1111 5
b101111 K
b1100100 ,
b1100100 J
1!
#47500
0!
#48000
b10000 5
0R
b110000 K
b1100100 J
b1100100 ,
1!
#48500
0!
#49000
1R
b10001 5
b110001 K
b1100100 ,
b1100100 J
1!
#49500
0!
#50000
b10010 5
0R
b110010 K
b1100100 J
b1100100 ,
1!
#50500
0!
#51000
1R
b10011 5
b110011 K
b1100100 ,
b1100100 J
1!
#51500
0!
#52000
b10100 5
0R
b110100 K
b1100100 J
b1100100 ,
1!
#52500
0!
#53000
1R
b10101 5
b110101 K
b1100100 ,
b1100100 J
1!
#53500
0!
#54000
b10110 5
0R
b110110 K
b1100100 J
b1100100 ,
1!
#54500
0!
#55000
1R
b10111 5
b110111 K
b1100100 ,
b1100100 J
1!
#55500
0!
#56000
b11000 5
0R
b111000 K
b1100100 J
b1100100 ,
1!
#56500
0!
#57000
1R
b11001 5
b111001 K
b1100100 ,
b1100100 J
1!
#57500
0!
#58000
b11010 5
0R
b111010 K
b1100100 J
b1100100 ,
1!
#58500
0!
#59000
1R
b11011 5
b111011 K
b1100100 ,
b1100100 J
1!
#59500
0!
#60000
b11100 5
0R
b111100 K
b1100100 J
b1100100 ,
1!
#60500
0!
#61000
1R
b11101 5
b111101 K
b1100100 ,
b1100100 J
1!
#61500
0!
#62000
b11110 5
0R
b111110 K
b1100100 J
b1100100 ,
1!
#62500
0!
#63000
1R
b11111 5
b111111 K
b1100100 ,
b1100100 J
1!
#63500
0!
#64000
b10 7
b0 5
0R
b1000000 K
b1100100 J
b1100100 ,
1!
#64500
0!
#65000
1R
b1 5
b1000001 K
b1100100 ,
b1100100 J
1!
#65500
0!
#66000
b10 5
0R
b1000010 K
b1100100 J
b1100100 ,
1!
#66500
0!
#67000
1R
b11 5
b1000011 K
b1100100 ,
b1100100 J
1!
#67500
0!
#68000
b100 5
0R
b1000100 K
b1100100 J
b1100100 ,
1!
#68500
0!
#69000
1R
b101 5
b1000101 K
b1100100 ,
b1100100 J
1!
#69500
0!
#70000
b110 5
0R
b1000110 K
b1100100 J
b1100100 ,
1!
#70500
0!
#71000
1R
b111 5
b1000111 K
b1100100 ,
b1100100 J
1!
#71500
0!
#72000
b1000 5
0R
b1001000 K
b1100100 J
b1100100 ,
1!
#72500
0!
#73000
1R
b1001 5
b1001001 K
b1100100 ,
b1100100 J
1!
#73500
0!
#74000
b1010 5
0R
b1001010 K
b1100100 J
b1100100 ,
1!
#74500
0!
#75000
1R
b1011 5
b1001011 K
b1100100 ,
b1100100 J
1!
#75500
0!
#76000
b1100 5
0R
b1001100 K
b1100100 J
b1100100 ,
1!
#76500
0!
#77000
1R
b1101 5
b1001101 K
b1100100 ,
b1100100 J
1!
#77500
0!
#78000
b1110 5
0R
b1001110 K
b1100100 J
b1100100 ,
1!
#78500
0!
#79000
1R
b1111 5
b1001111 K
b1100100 ,
b1100100 J
1!
#79500
0!
#80000
b10000 5
0R
b1010000 K
b1100100 J
b1100100 ,
1!
#80500
0!
#81000
1R
b10001 5
b1010001 K
b1100100 ,
b1100100 J
1!
#81500
0!
#82000
b10010 5
0R
b1010010 K
b1100100 J
b1100100 ,
1!
#82500
0!
#83000
1R
b10011 5
b1010011 K
b1100100 ,
b1100100 J
1!
#83500
0!
#84000
b10100 5
0R
b1010100 K
b1100100 J
b1100100 ,
1!
#84500
0!
#85000
1R
b10101 5
b1010101 K
b1100100 ,
b1100100 J
1!
#85500
0!
#86000
b10110 5
0R
b1010110 K
b1100100 J
b1100100 ,
1!
#86500
0!
#87000
1R
b10111 5
b1010111 K
b1100100 ,
b1100100 J
1!
#87500
0!
#88000
b11000 5
0R
b1011000 K
b1100100 J
b1100100 ,
1!
#88500
0!
#89000
1R
b11001 5
b1011001 K
b1100100 ,
b1100100 J
1!
#89500
0!
#90000
b11010 5
0R
b1011010 K
b1100100 J
b1100100 ,
1!
#90500
0!
#91000
1R
b11011 5
b1011011 K
b1100100 ,
b1100100 J
1!
#91500
0!
#92000
b11100 5
0R
b1011100 K
b1100100 J
b1100100 ,
1!
#92500
0!
#93000
1R
b11101 5
b1011101 K
b1100100 ,
b1100100 J
1!
#93500
0!
#94000
b11110 5
0R
b1011110 K
b1100100 J
b1100100 ,
1!
#94500
0!
#95000
1R
b11111 5
b1011111 K
b1100100 ,
b1100100 J
1!
#95500
0!
